"kitchen","date","hour","store_code","item","qty"
"Antipolo",2018-07-16,"5",2522,"NUG",2
"Antipolo",2018-07-16,"5",1670,"NUG",1
"Antipolo",2018-07-16,"5",1002,"NUG",2
"Antipolo",2018-07-16,"5",88,"NUG",1
"Antipolo",2018-07-16,"5",75,"CHX",2
"Antipolo",2018-07-16,"5",2522,"CHX",2
"Antipolo",2018-07-16,"5",1670,"CHX",2
"Antipolo",2018-07-16,"5",1002,"CHX",2
"Antipolo",2018-07-16,"5",2381,"CHX",2
"Antipolo",2018-07-16,"5",88,"CHX",4
"Antipolo",2018-07-16,"6",995,"NUG",3
"Antipolo",2018-07-16,"6",2413,"NUG",1
"Antipolo",2018-07-16,"6",2463,"NUG",2
"Antipolo",2018-07-16,"6",1881,"NUG",1
"Antipolo",2018-07-16,"6",995,"CHX",4
"Antipolo",2018-07-16,"6",2413,"CHX",2
"Antipolo",2018-07-16,"6",2463,"CHX",4
"Antipolo",2018-07-16,"6",1881,"CHX",2
"Antipolo",2018-07-16,"7",75,"NUG",4
"Antipolo",2018-07-16,"7",2522,"NUG",3
"Antipolo",2018-07-16,"7",1670,"NUG",3
"Antipolo",2018-07-16,"7",1002,"NUG",4
"Antipolo",2018-07-16,"7",2381,"NUG",2
"Antipolo",2018-07-16,"7",88,"NUG",4
"Antipolo",2018-07-16,"7",75,"CHX",6
"Antipolo",2018-07-16,"7",2522,"CHX",6
"Antipolo",2018-07-16,"7",1670,"CHX",5
"Antipolo",2018-07-16,"7",1002,"CHX",6
"Antipolo",2018-07-16,"7",2381,"CHX",3
"Antipolo",2018-07-16,"7",88,"CHX",6
"Antipolo",2018-07-16,"8",995,"NUG",2
"Antipolo",2018-07-16,"8",2413,"NUG",2
"Antipolo",2018-07-16,"8",2463,"NUG",2
"Antipolo",2018-07-16,"8",1881,"NUG",4
"Antipolo",2018-07-16,"8",995,"CHX",6
"Antipolo",2018-07-16,"8",2413,"CHX",5
"Antipolo",2018-07-16,"8",2463,"CHX",6
"Antipolo",2018-07-16,"8",1881,"CHX",5
"Antipolo",2018-07-16,"10",1002,"NUG",2
"Antipolo",2018-07-16,"10",2381,"NUG",2
"Antipolo",2018-07-16,"10",88,"NUG",1
"Antipolo",2018-07-16,"10",75,"CHX",4
"Antipolo",2018-07-16,"10",2522,"CHX",1
"Antipolo",2018-07-16,"10",1670,"CHX",5
"Antipolo",2018-07-16,"10",1002,"CHX",2
"Antipolo",2018-07-16,"10",2381,"CHX",2
"Antipolo",2018-07-16,"10",88,"CHX",4
"Antipolo",2018-07-16,"11",2522,"NUG",1
"Antipolo",2018-07-16,"11",1670,"NUG",2
"Antipolo",2018-07-16,"11",1002,"NUG",4
"Antipolo",2018-07-16,"11",995,"NUG",3
"Antipolo",2018-07-16,"11",2413,"NUG",2
"Antipolo",2018-07-16,"11",2463,"NUG",1
"Antipolo",2018-07-16,"11",1881,"NUG",5
"Antipolo",2018-07-16,"11",88,"NUG",2
"Antipolo",2018-07-16,"11",75,"CHX",4
"Antipolo",2018-07-16,"11",2522,"CHX",3
"Antipolo",2018-07-16,"11",1670,"CHX",5
"Antipolo",2018-07-16,"11",1002,"CHX",4
"Antipolo",2018-07-16,"11",2381,"CHX",2
"Antipolo",2018-07-16,"11",995,"CHX",4
"Antipolo",2018-07-16,"11",2413,"CHX",4
"Antipolo",2018-07-16,"11",2463,"CHX",2
"Antipolo",2018-07-16,"11",1881,"CHX",6
"Antipolo",2018-07-16,"11",88,"CHX",4
"Antipolo",2018-07-16,"12",75,"NUG",3
"Antipolo",2018-07-16,"12",2522,"NUG",2
"Antipolo",2018-07-16,"12",1670,"NUG",3
"Antipolo",2018-07-16,"12",2381,"NUG",1
"Antipolo",2018-07-16,"12",995,"NUG",2
"Antipolo",2018-07-16,"12",2463,"NUG",2
"Antipolo",2018-07-16,"12",1881,"NUG",1
"Antipolo",2018-07-16,"12",88,"NUG",2
"Antipolo",2018-07-16,"12",75,"CHX",4
"Antipolo",2018-07-16,"12",2522,"CHX",2
"Antipolo",2018-07-16,"12",1670,"CHX",4
"Antipolo",2018-07-16,"12",1002,"CHX",5
"Antipolo",2018-07-16,"12",2381,"CHX",4
"Antipolo",2018-07-16,"12",995,"CHX",5
"Antipolo",2018-07-16,"12",2413,"CHX",2
"Antipolo",2018-07-16,"12",2463,"CHX",2
"Antipolo",2018-07-16,"12",1881,"CHX",6
"Antipolo",2018-07-16,"12",88,"CHX",12
"Antipolo",2018-07-16,"13",1670,"NUG",1
"Antipolo",2018-07-16,"13",2381,"NUG",1
"Antipolo",2018-07-16,"13",995,"NUG",2
"Antipolo",2018-07-16,"13",2463,"NUG",1
"Antipolo",2018-07-16,"13",1881,"NUG",5
"Antipolo",2018-07-16,"13",88,"NUG",1
"Antipolo",2018-07-16,"13",75,"CHX",2
"Antipolo",2018-07-16,"13",1670,"CHX",2
"Antipolo",2018-07-16,"13",1002,"CHX",2
"Antipolo",2018-07-16,"13",2381,"CHX",2
"Antipolo",2018-07-16,"13",995,"CHX",2
"Antipolo",2018-07-16,"13",2413,"CHX",5
"Antipolo",2018-07-16,"13",2463,"CHX",5
"Antipolo",2018-07-16,"13",1881,"CHX",4
"Antipolo",2018-07-16,"13",88,"CHX",6
"Antipolo",2018-07-16,"14",75,"NUG",1
"Antipolo",2018-07-16,"14",1670,"NUG",3
"Antipolo",2018-07-16,"14",1002,"NUG",2
"Antipolo",2018-07-16,"14",2381,"NUG",2
"Antipolo",2018-07-16,"14",88,"NUG",3
"Antipolo",2018-07-16,"14",75,"CHX",4
"Antipolo",2018-07-16,"14",2522,"CHX",2
"Antipolo",2018-07-16,"14",1670,"CHX",4
"Antipolo",2018-07-16,"14",1002,"CHX",6
"Antipolo",2018-07-16,"14",2381,"CHX",2
"Antipolo",2018-07-16,"14",88,"CHX",6
"Antipolo",2018-07-16,"15",995,"NUG",4
"Antipolo",2018-07-16,"15",2413,"NUG",2
"Antipolo",2018-07-16,"15",2463,"NUG",3
"Antipolo",2018-07-16,"15",1881,"NUG",1
"Antipolo",2018-07-16,"15",995,"CHX",10
"Antipolo",2018-07-16,"15",2413,"CHX",4
"Antipolo",2018-07-16,"15",2463,"CHX",5
"Antipolo",2018-07-16,"15",1881,"CHX",4
"Antipolo",2018-07-16,"16",75,"NUG",2
"Antipolo",2018-07-16,"16",2522,"NUG",1
"Antipolo",2018-07-16,"16",1670,"NUG",3
"Antipolo",2018-07-16,"16",1002,"NUG",1
"Antipolo",2018-07-16,"16",2381,"NUG",3
"Antipolo",2018-07-16,"16",88,"NUG",1
"Antipolo",2018-07-16,"16",75,"CHX",6
"Antipolo",2018-07-16,"16",2522,"CHX",2
"Antipolo",2018-07-16,"16",1670,"CHX",3
"Antipolo",2018-07-16,"16",1002,"CHX",4
"Antipolo",2018-07-16,"16",2381,"CHX",5
"Antipolo",2018-07-16,"16",88,"CHX",6
"Antipolo",2018-07-16,"17",995,"NUG",3
"Antipolo",2018-07-16,"17",2413,"NUG",2
"Antipolo",2018-07-16,"17",2463,"NUG",3
"Antipolo",2018-07-16,"17",1881,"NUG",2
"Antipolo",2018-07-16,"17",995,"CHX",5
"Antipolo",2018-07-16,"17",2413,"CHX",2
"Antipolo",2018-07-16,"17",2463,"CHX",6
"Antipolo",2018-07-16,"17",1881,"CHX",5
"Antipolo",2018-07-16,"18",75,"NUG",7
"Antipolo",2018-07-16,"18",2522,"NUG",2
"Antipolo",2018-07-16,"18",1670,"NUG",6
"Antipolo",2018-07-16,"18",1002,"NUG",5
"Antipolo",2018-07-16,"18",2381,"NUG",3
"Antipolo",2018-07-16,"18",88,"NUG",5
"Antipolo",2018-07-16,"18",75,"CHX",13
"Antipolo",2018-07-16,"18",2522,"CHX",3
"Antipolo",2018-07-16,"18",1670,"CHX",8
"Antipolo",2018-07-16,"18",1002,"CHX",7
"Antipolo",2018-07-16,"18",2381,"CHX",3
"Antipolo",2018-07-16,"18",88,"CHX",13
"Antipolo",2018-07-16,"19",995,"NUG",4
"Antipolo",2018-07-16,"19",2413,"NUG",3
"Antipolo",2018-07-16,"19",2463,"NUG",2
"Antipolo",2018-07-16,"19",1881,"NUG",5
"Antipolo",2018-07-16,"19",995,"CHX",4
"Antipolo",2018-07-16,"19",2413,"CHX",13
"Antipolo",2018-07-16,"19",2463,"CHX",4
"Antipolo",2018-07-16,"19",1881,"CHX",7
"Antipolo",2018-07-17,"5",75,"NUG",2
"Antipolo",2018-07-17,"5",2522,"NUG",2
"Antipolo",2018-07-17,"5",1670,"NUG",1
"Antipolo",2018-07-17,"5",1002,"NUG",1
"Antipolo",2018-07-17,"5",2381,"NUG",1
"Antipolo",2018-07-17,"5",88,"NUG",2
"Antipolo",2018-07-17,"5",75,"CHX",3
"Antipolo",2018-07-17,"5",2522,"CHX",2
"Antipolo",2018-07-17,"5",1670,"CHX",3
"Antipolo",2018-07-17,"5",1002,"CHX",2
"Antipolo",2018-07-17,"5",2381,"CHX",2
"Antipolo",2018-07-17,"5",88,"CHX",4
"Antipolo",2018-07-17,"6",995,"NUG",3
"Antipolo",2018-07-17,"6",2413,"NUG",3
"Antipolo",2018-07-17,"6",1881,"NUG",1
"Antipolo",2018-07-17,"6",995,"CHX",6
"Antipolo",2018-07-17,"6",2413,"CHX",4
"Antipolo",2018-07-17,"6",2463,"CHX",3
"Antipolo",2018-07-17,"6",1881,"CHX",2
"Antipolo",2018-07-17,"7",75,"NUG",2
"Antipolo",2018-07-17,"7",2522,"NUG",2
"Antipolo",2018-07-17,"7",1670,"NUG",5
"Antipolo",2018-07-17,"7",1002,"NUG",1
"Antipolo",2018-07-17,"7",2381,"NUG",1
"Antipolo",2018-07-17,"7",88,"NUG",3
"Antipolo",2018-07-17,"7",75,"CHX",6
"Antipolo",2018-07-17,"7",2522,"CHX",2
"Antipolo",2018-07-17,"7",1670,"CHX",9
"Antipolo",2018-07-17,"7",1002,"CHX",7
"Antipolo",2018-07-17,"7",2381,"CHX",6
"Antipolo",2018-07-17,"7",88,"CHX",9
"Antipolo",2018-07-17,"8",995,"NUG",5
"Antipolo",2018-07-17,"8",2413,"NUG",2
"Antipolo",2018-07-17,"8",2463,"NUG",3
"Antipolo",2018-07-17,"8",1881,"NUG",4
"Antipolo",2018-07-17,"8",995,"CHX",7
"Antipolo",2018-07-17,"8",2413,"CHX",4
"Antipolo",2018-07-17,"8",2463,"CHX",6
"Antipolo",2018-07-17,"8",1881,"CHX",5
"Antipolo",2018-07-17,"10",75,"NUG",2
"Antipolo",2018-07-17,"10",1670,"NUG",2
"Antipolo",2018-07-17,"10",1002,"NUG",1
"Antipolo",2018-07-17,"10",2381,"NUG",1
"Antipolo",2018-07-17,"10",88,"NUG",5
"Antipolo",2018-07-17,"10",75,"CHX",2
"Antipolo",2018-07-17,"10",2522,"CHX",2
"Antipolo",2018-07-17,"10",1670,"CHX",2
"Antipolo",2018-07-17,"10",1002,"CHX",4
"Antipolo",2018-07-17,"10",2381,"CHX",2
"Antipolo",2018-07-17,"10",88,"CHX",4
"Antipolo",2018-07-17,"11",75,"NUG",1
"Antipolo",2018-07-17,"11",2522,"NUG",1
"Antipolo",2018-07-17,"11",1670,"NUG",1
"Antipolo",2018-07-17,"11",1002,"NUG",1
"Antipolo",2018-07-17,"11",2381,"NUG",1
"Antipolo",2018-07-17,"11",995,"NUG",2
"Antipolo",2018-07-17,"11",2413,"NUG",1
"Antipolo",2018-07-17,"11",2463,"NUG",1
"Antipolo",2018-07-17,"11",1881,"NUG",2
"Antipolo",2018-07-17,"11",88,"NUG",1
"Antipolo",2018-07-17,"11",75,"CHX",4
"Antipolo",2018-07-17,"11",2522,"CHX",2
"Antipolo",2018-07-17,"11",1670,"CHX",2
"Antipolo",2018-07-17,"11",1002,"CHX",2
"Antipolo",2018-07-17,"11",2381,"CHX",2
"Antipolo",2018-07-17,"11",995,"CHX",2
"Antipolo",2018-07-17,"11",2413,"CHX",5
"Antipolo",2018-07-17,"11",2463,"CHX",2
"Antipolo",2018-07-17,"11",1881,"CHX",8
"Antipolo",2018-07-17,"11",88,"CHX",6
"Antipolo",2018-07-17,"12",75,"NUG",1
"Antipolo",2018-07-17,"12",2522,"NUG",1
"Antipolo",2018-07-17,"12",1670,"NUG",2
"Antipolo",2018-07-17,"12",1002,"NUG",1
"Antipolo",2018-07-17,"12",2381,"NUG",3
"Antipolo",2018-07-17,"12",995,"NUG",2
"Antipolo",2018-07-17,"12",2413,"NUG",2
"Antipolo",2018-07-17,"12",1881,"NUG",3
"Antipolo",2018-07-17,"12",88,"NUG",1
"Antipolo",2018-07-17,"12",75,"CHX",5
"Antipolo",2018-07-17,"12",2522,"CHX",2
"Antipolo",2018-07-17,"12",1670,"CHX",2
"Antipolo",2018-07-17,"12",1002,"CHX",4
"Antipolo",2018-07-17,"12",2381,"CHX",2
"Antipolo",2018-07-17,"12",995,"CHX",4
"Antipolo",2018-07-17,"12",2413,"CHX",8
"Antipolo",2018-07-17,"12",2463,"CHX",3
"Antipolo",2018-07-17,"12",1881,"CHX",5
"Antipolo",2018-07-17,"12",88,"CHX",6
"Antipolo",2018-07-17,"13",75,"NUG",1
"Antipolo",2018-07-17,"13",1002,"NUG",1
"Antipolo",2018-07-17,"13",2381,"NUG",2
"Antipolo",2018-07-17,"13",995,"NUG",6
"Antipolo",2018-07-17,"13",2413,"NUG",4
"Antipolo",2018-07-17,"13",2463,"NUG",3
"Antipolo",2018-07-17,"13",1881,"NUG",3
"Antipolo",2018-07-17,"13",88,"NUG",2
"Antipolo",2018-07-17,"13",75,"CHX",2
"Antipolo",2018-07-17,"13",2522,"CHX",3
"Antipolo",2018-07-17,"13",1670,"CHX",5
"Antipolo",2018-07-17,"13",1002,"CHX",2
"Antipolo",2018-07-17,"13",2381,"CHX",1
"Antipolo",2018-07-17,"13",995,"CHX",4
"Antipolo",2018-07-17,"13",2413,"CHX",4
"Antipolo",2018-07-17,"13",2463,"CHX",2
"Antipolo",2018-07-17,"13",1881,"CHX",6
"Antipolo",2018-07-17,"13",88,"CHX",4
"Antipolo",2018-07-17,"14",75,"NUG",4
"Antipolo",2018-07-17,"14",2522,"NUG",1
"Antipolo",2018-07-17,"14",1670,"NUG",3
"Antipolo",2018-07-17,"14",1002,"NUG",5
"Antipolo",2018-07-17,"14",88,"NUG",4
"Antipolo",2018-07-17,"14",75,"CHX",4
"Antipolo",2018-07-17,"14",1670,"CHX",7
"Antipolo",2018-07-17,"14",1002,"CHX",4
"Antipolo",2018-07-17,"14",2381,"CHX",2
"Antipolo",2018-07-17,"14",88,"CHX",5
"Antipolo",2018-07-17,"15",995,"NUG",4
"Antipolo",2018-07-17,"15",2413,"NUG",2
"Antipolo",2018-07-17,"15",2463,"NUG",4
"Antipolo",2018-07-17,"15",1881,"NUG",2
"Antipolo",2018-07-17,"15",995,"CHX",4
"Antipolo",2018-07-17,"15",2413,"CHX",5
"Antipolo",2018-07-17,"15",2463,"CHX",9
"Antipolo",2018-07-17,"15",1881,"CHX",4
"Antipolo",2018-07-17,"16",75,"NUG",2
"Antipolo",2018-07-17,"16",2522,"NUG",2
"Antipolo",2018-07-17,"16",1670,"NUG",2
"Antipolo",2018-07-17,"16",1002,"NUG",3
"Antipolo",2018-07-17,"16",2381,"NUG",2
"Antipolo",2018-07-17,"16",88,"NUG",2
"Antipolo",2018-07-17,"16",75,"CHX",1
"Antipolo",2018-07-17,"16",2522,"CHX",2
"Antipolo",2018-07-17,"16",1670,"CHX",6
"Antipolo",2018-07-17,"16",1002,"CHX",4
"Antipolo",2018-07-17,"16",2381,"CHX",2
"Antipolo",2018-07-17,"16",88,"CHX",6
"Antipolo",2018-07-17,"17",995,"NUG",3
"Antipolo",2018-07-17,"17",2413,"NUG",4
"Antipolo",2018-07-17,"17",2463,"NUG",4
"Antipolo",2018-07-17,"17",1881,"NUG",4
"Antipolo",2018-07-17,"17",995,"CHX",4
"Antipolo",2018-07-17,"17",2413,"CHX",9
"Antipolo",2018-07-17,"17",2463,"CHX",7
"Antipolo",2018-07-17,"17",1881,"CHX",6
"Antipolo",2018-07-17,"18",75,"NUG",4
"Antipolo",2018-07-17,"18",2522,"NUG",2
"Antipolo",2018-07-17,"18",1670,"NUG",5
"Antipolo",2018-07-17,"18",1002,"NUG",1
"Antipolo",2018-07-17,"18",2381,"NUG",6
"Antipolo",2018-07-17,"18",88,"NUG",4
"Antipolo",2018-07-17,"18",75,"CHX",10
"Antipolo",2018-07-17,"18",2522,"CHX",5
"Antipolo",2018-07-17,"18",1670,"CHX",12
"Antipolo",2018-07-17,"18",1002,"CHX",5
"Antipolo",2018-07-17,"18",2381,"CHX",2
"Antipolo",2018-07-17,"18",88,"CHX",10
"Antipolo",2018-07-17,"19",995,"NUG",3
"Antipolo",2018-07-17,"19",2413,"NUG",5
"Antipolo",2018-07-17,"19",2463,"NUG",2
"Antipolo",2018-07-17,"19",1881,"NUG",3
"Antipolo",2018-07-17,"19",995,"CHX",4
"Antipolo",2018-07-17,"19",2413,"CHX",11
"Antipolo",2018-07-17,"19",2463,"CHX",6
"Antipolo",2018-07-17,"19",1881,"CHX",4
"Antipolo",2018-07-18,"5",75,"NUG",1
"Antipolo",2018-07-18,"5",2522,"NUG",1
"Antipolo",2018-07-18,"5",1670,"NUG",1
"Antipolo",2018-07-18,"5",1002,"NUG",1
"Antipolo",2018-07-18,"5",2381,"NUG",1
"Antipolo",2018-07-18,"5",88,"NUG",1
"Antipolo",2018-07-18,"5",75,"CHX",2
"Antipolo",2018-07-18,"5",2522,"CHX",2
"Antipolo",2018-07-18,"5",1670,"CHX",2
"Antipolo",2018-07-18,"5",1002,"CHX",2
"Antipolo",2018-07-18,"5",2381,"CHX",2
"Antipolo",2018-07-18,"5",88,"CHX",3
"Antipolo",2018-07-18,"6",995,"NUG",2
"Antipolo",2018-07-18,"6",2413,"NUG",1
"Antipolo",2018-07-18,"6",2463,"NUG",1
"Antipolo",2018-07-18,"6",1881,"NUG",1
"Antipolo",2018-07-18,"6",995,"CHX",2
"Antipolo",2018-07-18,"6",2413,"CHX",3
"Antipolo",2018-07-18,"6",2463,"CHX",3
"Antipolo",2018-07-18,"6",1881,"CHX",3
"Antipolo",2018-07-18,"7",75,"NUG",5
"Antipolo",2018-07-18,"7",2522,"NUG",1
"Antipolo",2018-07-18,"7",1670,"NUG",3
"Antipolo",2018-07-18,"7",2381,"NUG",2
"Antipolo",2018-07-18,"7",88,"NUG",5
"Antipolo",2018-07-18,"7",75,"CHX",7
"Antipolo",2018-07-18,"7",2522,"CHX",3
"Antipolo",2018-07-18,"7",1670,"CHX",6
"Antipolo",2018-07-18,"7",1002,"CHX",5
"Antipolo",2018-07-18,"7",2381,"CHX",3
"Antipolo",2018-07-18,"7",88,"CHX",7
"Antipolo",2018-07-18,"8",995,"NUG",3
"Antipolo",2018-07-18,"8",2413,"NUG",3
"Antipolo",2018-07-18,"8",2463,"NUG",5
"Antipolo",2018-07-18,"8",1881,"NUG",2
"Antipolo",2018-07-18,"8",995,"CHX",5
"Antipolo",2018-07-18,"8",2413,"CHX",5
"Antipolo",2018-07-18,"8",2463,"CHX",8
"Antipolo",2018-07-18,"8",1881,"CHX",4
"Antipolo",2018-07-18,"10",75,"NUG",2
"Antipolo",2018-07-18,"10",2522,"NUG",1
"Antipolo",2018-07-18,"10",1670,"NUG",1
"Antipolo",2018-07-18,"10",1002,"NUG",1
"Antipolo",2018-07-18,"10",75,"CHX",1
"Antipolo",2018-07-18,"10",2522,"CHX",2
"Antipolo",2018-07-18,"10",1670,"CHX",1
"Antipolo",2018-07-18,"10",1002,"CHX",2
"Antipolo",2018-07-18,"10",2381,"CHX",2
"Antipolo",2018-07-18,"10",88,"CHX",2
"Antipolo",2018-07-18,"11",75,"NUG",2
"Antipolo",2018-07-18,"11",2522,"NUG",1
"Antipolo",2018-07-18,"11",1670,"NUG",1
"Antipolo",2018-07-18,"11",1002,"NUG",1
"Antipolo",2018-07-18,"11",2381,"NUG",1
"Antipolo",2018-07-18,"11",995,"NUG",1
"Antipolo",2018-07-18,"11",2413,"NUG",3
"Antipolo",2018-07-18,"11",2463,"NUG",1
"Antipolo",2018-07-18,"11",1881,"NUG",2
"Antipolo",2018-07-18,"11",88,"NUG",2
"Antipolo",2018-07-18,"11",75,"CHX",6
"Antipolo",2018-07-18,"11",2522,"CHX",1
"Antipolo",2018-07-18,"11",1670,"CHX",2
"Antipolo",2018-07-18,"11",1002,"CHX",3
"Antipolo",2018-07-18,"11",2381,"CHX",2
"Antipolo",2018-07-18,"11",995,"CHX",3
"Antipolo",2018-07-18,"11",2413,"CHX",4
"Antipolo",2018-07-18,"11",2463,"CHX",4
"Antipolo",2018-07-18,"11",1881,"CHX",4
"Antipolo",2018-07-18,"11",88,"CHX",14
"Antipolo",2018-07-18,"12",75,"NUG",2
"Antipolo",2018-07-18,"12",2522,"NUG",1
"Antipolo",2018-07-18,"12",1670,"NUG",1
"Antipolo",2018-07-18,"12",1002,"NUG",2
"Antipolo",2018-07-18,"12",2381,"NUG",2
"Antipolo",2018-07-18,"12",995,"NUG",1
"Antipolo",2018-07-18,"12",2413,"NUG",1
"Antipolo",2018-07-18,"12",2463,"NUG",2
"Antipolo",2018-07-18,"12",1881,"NUG",2
"Antipolo",2018-07-18,"12",88,"NUG",3
"Antipolo",2018-07-18,"12",75,"CHX",4
"Antipolo",2018-07-18,"12",2522,"CHX",2
"Antipolo",2018-07-18,"12",1670,"CHX",4
"Antipolo",2018-07-18,"12",1002,"CHX",4
"Antipolo",2018-07-18,"12",2381,"CHX",2
"Antipolo",2018-07-18,"12",995,"CHX",4
"Antipolo",2018-07-18,"12",2413,"CHX",2
"Antipolo",2018-07-18,"12",2463,"CHX",2
"Antipolo",2018-07-18,"12",1881,"CHX",5
"Antipolo",2018-07-18,"12",88,"CHX",6
"Antipolo",2018-07-18,"13",75,"NUG",2
"Antipolo",2018-07-18,"13",2522,"NUG",3
"Antipolo",2018-07-18,"13",1670,"NUG",1
"Antipolo",2018-07-18,"13",1002,"NUG",1
"Antipolo",2018-07-18,"13",2381,"NUG",1
"Antipolo",2018-07-18,"13",995,"NUG",5
"Antipolo",2018-07-18,"13",2413,"NUG",3
"Antipolo",2018-07-18,"13",2463,"NUG",4
"Antipolo",2018-07-18,"13",1881,"NUG",1
"Antipolo",2018-07-18,"13",88,"NUG",1
"Antipolo",2018-07-18,"13",75,"CHX",2
"Antipolo",2018-07-18,"13",2522,"CHX",2
"Antipolo",2018-07-18,"13",1670,"CHX",4
"Antipolo",2018-07-18,"13",1002,"CHX",2
"Antipolo",2018-07-18,"13",2381,"CHX",2
"Antipolo",2018-07-18,"13",995,"CHX",4
"Antipolo",2018-07-18,"13",2413,"CHX",7
"Antipolo",2018-07-18,"13",2463,"CHX",2
"Antipolo",2018-07-18,"13",1881,"CHX",5
"Antipolo",2018-07-18,"13",88,"CHX",2
"Antipolo",2018-07-18,"14",75,"NUG",3
"Antipolo",2018-07-18,"14",1670,"NUG",1
"Antipolo",2018-07-18,"14",1002,"NUG",1
"Antipolo",2018-07-18,"14",2381,"NUG",3
"Antipolo",2018-07-18,"14",88,"NUG",3
"Antipolo",2018-07-18,"14",75,"CHX",3
"Antipolo",2018-07-18,"14",2522,"CHX",3
"Antipolo",2018-07-18,"14",1670,"CHX",3
"Antipolo",2018-07-18,"14",1002,"CHX",5
"Antipolo",2018-07-18,"14",2381,"CHX",4
"Antipolo",2018-07-18,"14",88,"CHX",8
"Antipolo",2018-07-18,"15",995,"NUG",3
"Antipolo",2018-07-18,"15",2413,"NUG",2
"Antipolo",2018-07-18,"15",2463,"NUG",4
"Antipolo",2018-07-18,"15",1881,"NUG",2
"Antipolo",2018-07-18,"15",995,"CHX",5
"Antipolo",2018-07-18,"15",2413,"CHX",5
"Antipolo",2018-07-18,"15",2463,"CHX",6
"Antipolo",2018-07-18,"15",1881,"CHX",5
"Antipolo",2018-07-18,"16",75,"NUG",2
"Antipolo",2018-07-18,"16",1670,"NUG",2
"Antipolo",2018-07-18,"16",1002,"NUG",2
"Antipolo",2018-07-18,"16",2381,"NUG",2
"Antipolo",2018-07-18,"16",75,"CHX",8
"Antipolo",2018-07-18,"16",2522,"CHX",2
"Antipolo",2018-07-18,"16",1670,"CHX",5
"Antipolo",2018-07-18,"16",1002,"CHX",4
"Antipolo",2018-07-18,"16",2381,"CHX",8
"Antipolo",2018-07-18,"16",88,"CHX",9
"Antipolo",2018-07-18,"17",995,"NUG",6
"Antipolo",2018-07-18,"17",2413,"NUG",1
"Antipolo",2018-07-18,"17",2463,"NUG",6
"Antipolo",2018-07-18,"17",1881,"NUG",1
"Antipolo",2018-07-18,"17",995,"CHX",4
"Antipolo",2018-07-18,"17",2413,"CHX",5
"Antipolo",2018-07-18,"17",2463,"CHX",3
"Antipolo",2018-07-18,"17",1881,"CHX",5
"Antipolo",2018-07-18,"18",75,"NUG",7
"Antipolo",2018-07-18,"18",2522,"NUG",1
"Antipolo",2018-07-18,"18",1670,"NUG",5
"Antipolo",2018-07-18,"18",1002,"NUG",4
"Antipolo",2018-07-18,"18",2381,"NUG",5
"Antipolo",2018-07-18,"18",88,"NUG",9
"Antipolo",2018-07-18,"18",75,"CHX",10
"Antipolo",2018-07-18,"18",2522,"CHX",4
"Antipolo",2018-07-18,"18",1670,"CHX",10
"Antipolo",2018-07-18,"18",1002,"CHX",9
"Antipolo",2018-07-18,"18",2381,"CHX",6
"Antipolo",2018-07-18,"18",88,"CHX",13
"Antipolo",2018-07-18,"19",995,"NUG",5
"Antipolo",2018-07-18,"19",2413,"NUG",6
"Antipolo",2018-07-18,"19",2463,"NUG",2
"Antipolo",2018-07-18,"19",1881,"NUG",5
"Antipolo",2018-07-18,"19",995,"CHX",7
"Antipolo",2018-07-18,"19",2413,"CHX",10
"Antipolo",2018-07-18,"19",2463,"CHX",10
"Antipolo",2018-07-18,"19",1881,"CHX",18
"Antipolo",2018-07-19,"5",75,"NUG",2
"Antipolo",2018-07-19,"5",2522,"NUG",1
"Antipolo",2018-07-19,"5",1670,"NUG",3
"Antipolo",2018-07-19,"5",1002,"NUG",1
"Antipolo",2018-07-19,"5",2381,"NUG",2
"Antipolo",2018-07-19,"5",88,"NUG",2
"Antipolo",2018-07-19,"5",75,"CHX",2
"Antipolo",2018-07-19,"5",2522,"CHX",2
"Antipolo",2018-07-19,"5",1670,"CHX",2
"Antipolo",2018-07-19,"5",1002,"CHX",1
"Antipolo",2018-07-19,"5",2381,"CHX",1
"Antipolo",2018-07-19,"5",88,"CHX",3
"Antipolo",2018-07-19,"6",995,"NUG",2
"Antipolo",2018-07-19,"6",2413,"NUG",3
"Antipolo",2018-07-19,"6",2463,"NUG",1
"Antipolo",2018-07-19,"6",1881,"NUG",2
"Antipolo",2018-07-19,"6",995,"CHX",3
"Antipolo",2018-07-19,"6",2413,"CHX",2
"Antipolo",2018-07-19,"6",2463,"CHX",2
"Antipolo",2018-07-19,"6",1881,"CHX",2
"Antipolo",2018-07-19,"7",75,"NUG",3
"Antipolo",2018-07-19,"7",2522,"NUG",1
"Antipolo",2018-07-19,"7",1670,"NUG",4
"Antipolo",2018-07-19,"7",1002,"NUG",2
"Antipolo",2018-07-19,"7",2381,"NUG",3
"Antipolo",2018-07-19,"7",88,"NUG",4
"Antipolo",2018-07-19,"7",75,"CHX",4
"Antipolo",2018-07-19,"7",2522,"CHX",2
"Antipolo",2018-07-19,"7",1670,"CHX",5
"Antipolo",2018-07-19,"7",1002,"CHX",5
"Antipolo",2018-07-19,"7",2381,"CHX",4
"Antipolo",2018-07-19,"7",88,"CHX",5
"Antipolo",2018-07-19,"8",995,"NUG",4
"Antipolo",2018-07-19,"8",2413,"NUG",3
"Antipolo",2018-07-19,"8",2463,"NUG",4
"Antipolo",2018-07-19,"8",1881,"NUG",2
"Antipolo",2018-07-19,"8",995,"CHX",5
"Antipolo",2018-07-19,"8",2413,"CHX",3
"Antipolo",2018-07-19,"8",2463,"CHX",2
"Antipolo",2018-07-19,"8",1881,"CHX",5
"Antipolo",2018-07-19,"10",75,"NUG",2
"Antipolo",2018-07-19,"10",2522,"NUG",2
"Antipolo",2018-07-19,"10",1670,"NUG",1
"Antipolo",2018-07-19,"10",1002,"NUG",1
"Antipolo",2018-07-19,"10",2381,"NUG",2
"Antipolo",2018-07-19,"10",88,"NUG",1
"Antipolo",2018-07-19,"10",75,"CHX",4
"Antipolo",2018-07-19,"10",2522,"CHX",2
"Antipolo",2018-07-19,"10",1670,"CHX",2
"Antipolo",2018-07-19,"10",1002,"CHX",2
"Antipolo",2018-07-19,"10",2381,"CHX",2
"Antipolo",2018-07-19,"10",88,"CHX",3
"Antipolo",2018-07-19,"11",75,"NUG",2
"Antipolo",2018-07-19,"11",2522,"NUG",2
"Antipolo",2018-07-19,"11",1670,"NUG",3
"Antipolo",2018-07-19,"11",1002,"NUG",1
"Antipolo",2018-07-19,"11",2381,"NUG",2
"Antipolo",2018-07-19,"11",995,"NUG",2
"Antipolo",2018-07-19,"11",2413,"NUG",1
"Antipolo",2018-07-19,"11",2463,"NUG",1
"Antipolo",2018-07-19,"11",1881,"NUG",2
"Antipolo",2018-07-19,"11",88,"NUG",3
"Antipolo",2018-07-19,"11",75,"CHX",5
"Antipolo",2018-07-19,"11",2522,"CHX",2
"Antipolo",2018-07-19,"11",1670,"CHX",3
"Antipolo",2018-07-19,"11",1002,"CHX",6
"Antipolo",2018-07-19,"11",2381,"CHX",4
"Antipolo",2018-07-19,"11",995,"CHX",6
"Antipolo",2018-07-19,"11",2413,"CHX",2
"Antipolo",2018-07-19,"11",2463,"CHX",4
"Antipolo",2018-07-19,"11",1881,"CHX",5
"Antipolo",2018-07-19,"11",88,"CHX",10
"Antipolo",2018-07-19,"12",75,"NUG",2
"Antipolo",2018-07-19,"12",1670,"NUG",3
"Antipolo",2018-07-19,"12",1002,"NUG",1
"Antipolo",2018-07-19,"12",2381,"NUG",2
"Antipolo",2018-07-19,"12",995,"NUG",2
"Antipolo",2018-07-19,"12",2413,"NUG",1
"Antipolo",2018-07-19,"12",2463,"NUG",1
"Antipolo",2018-07-19,"12",1881,"NUG",2
"Antipolo",2018-07-19,"12",88,"NUG",3
"Antipolo",2018-07-19,"12",75,"CHX",4
"Antipolo",2018-07-19,"12",2522,"CHX",3
"Antipolo",2018-07-19,"12",1670,"CHX",6
"Antipolo",2018-07-19,"12",1002,"CHX",4
"Antipolo",2018-07-19,"12",2381,"CHX",2
"Antipolo",2018-07-19,"12",995,"CHX",4
"Antipolo",2018-07-19,"12",2413,"CHX",7
"Antipolo",2018-07-19,"12",2463,"CHX",3
"Antipolo",2018-07-19,"12",1881,"CHX",7
"Antipolo",2018-07-19,"12",88,"CHX",8
"Antipolo",2018-07-19,"13",2522,"NUG",2
"Antipolo",2018-07-19,"13",1670,"NUG",1
"Antipolo",2018-07-19,"13",2381,"NUG",1
"Antipolo",2018-07-19,"13",995,"NUG",1
"Antipolo",2018-07-19,"13",2413,"NUG",2
"Antipolo",2018-07-19,"13",2463,"NUG",2
"Antipolo",2018-07-19,"13",1881,"NUG",2
"Antipolo",2018-07-19,"13",88,"NUG",2
"Antipolo",2018-07-19,"13",75,"CHX",2
"Antipolo",2018-07-19,"13",2522,"CHX",2
"Antipolo",2018-07-19,"13",1670,"CHX",4
"Antipolo",2018-07-19,"13",1002,"CHX",2
"Antipolo",2018-07-19,"13",2381,"CHX",2
"Antipolo",2018-07-19,"13",995,"CHX",3
"Antipolo",2018-07-19,"13",2413,"CHX",6
"Antipolo",2018-07-19,"13",2463,"CHX",3
"Antipolo",2018-07-19,"13",1881,"CHX",6
"Antipolo",2018-07-19,"13",88,"CHX",6
"Antipolo",2018-07-19,"14",75,"NUG",1
"Antipolo",2018-07-19,"14",1670,"NUG",2
"Antipolo",2018-07-19,"14",1002,"NUG",2
"Antipolo",2018-07-19,"14",88,"NUG",2
"Antipolo",2018-07-19,"14",75,"CHX",5
"Antipolo",2018-07-19,"14",2522,"CHX",2
"Antipolo",2018-07-19,"14",1670,"CHX",3
"Antipolo",2018-07-19,"14",1002,"CHX",6
"Antipolo",2018-07-19,"14",2381,"CHX",4
"Antipolo",2018-07-19,"14",88,"CHX",2
"Antipolo",2018-07-19,"15",995,"NUG",4
"Antipolo",2018-07-19,"15",2413,"NUG",2
"Antipolo",2018-07-19,"15",2463,"NUG",5
"Antipolo",2018-07-19,"15",1881,"NUG",2
"Antipolo",2018-07-19,"15",995,"CHX",6
"Antipolo",2018-07-19,"15",2413,"CHX",2
"Antipolo",2018-07-19,"15",2463,"CHX",5
"Antipolo",2018-07-19,"15",1881,"CHX",6
"Antipolo",2018-07-19,"16",2522,"NUG",1
"Antipolo",2018-07-19,"16",1670,"NUG",2
"Antipolo",2018-07-19,"16",1002,"NUG",2
"Antipolo",2018-07-19,"16",2381,"NUG",1
"Antipolo",2018-07-19,"16",75,"CHX",5
"Antipolo",2018-07-19,"16",2522,"CHX",3
"Antipolo",2018-07-19,"16",1670,"CHX",10
"Antipolo",2018-07-19,"16",1002,"CHX",3
"Antipolo",2018-07-19,"16",2381,"CHX",4
"Antipolo",2018-07-19,"16",88,"CHX",5
"Antipolo",2018-07-19,"17",995,"NUG",5
"Antipolo",2018-07-19,"17",2413,"NUG",3
"Antipolo",2018-07-19,"17",2463,"NUG",2
"Antipolo",2018-07-19,"17",1881,"NUG",1
"Antipolo",2018-07-19,"17",995,"CHX",3
"Antipolo",2018-07-19,"17",2413,"CHX",4
"Antipolo",2018-07-19,"17",2463,"CHX",3
"Antipolo",2018-07-19,"17",1881,"CHX",14
"Antipolo",2018-07-19,"18",75,"NUG",4
"Antipolo",2018-07-19,"18",2522,"NUG",3
"Antipolo",2018-07-19,"18",1670,"NUG",8
"Antipolo",2018-07-19,"18",1002,"NUG",4
"Antipolo",2018-07-19,"18",2381,"NUG",5
"Antipolo",2018-07-19,"18",88,"NUG",7
"Antipolo",2018-07-19,"18",75,"CHX",8
"Antipolo",2018-07-19,"18",2522,"CHX",8
"Antipolo",2018-07-19,"18",1670,"CHX",12
"Antipolo",2018-07-19,"18",1002,"CHX",8
"Antipolo",2018-07-19,"18",2381,"CHX",9
"Antipolo",2018-07-19,"18",88,"CHX",13
"Antipolo",2018-07-19,"19",995,"NUG",5
"Antipolo",2018-07-19,"19",2413,"NUG",4
"Antipolo",2018-07-19,"19",2463,"NUG",7
"Antipolo",2018-07-19,"19",1881,"NUG",4
"Antipolo",2018-07-19,"19",995,"CHX",7
"Antipolo",2018-07-19,"19",2413,"CHX",14
"Antipolo",2018-07-19,"19",2463,"CHX",9
"Antipolo",2018-07-19,"19",1881,"CHX",9
"Antipolo",2018-07-20,"5",75,"NUG",1
"Antipolo",2018-07-20,"5",2522,"NUG",1
"Antipolo",2018-07-20,"5",1670,"NUG",1
"Antipolo",2018-07-20,"5",1002,"NUG",1
"Antipolo",2018-07-20,"5",88,"NUG",1
"Antipolo",2018-07-20,"5",75,"CHX",2
"Antipolo",2018-07-20,"5",2522,"CHX",2
"Antipolo",2018-07-20,"5",1670,"CHX",2
"Antipolo",2018-07-20,"5",1002,"CHX",2
"Antipolo",2018-07-20,"5",88,"CHX",3
"Antipolo",2018-07-20,"6",995,"NUG",2
"Antipolo",2018-07-20,"6",2413,"NUG",1
"Antipolo",2018-07-20,"6",2463,"NUG",1
"Antipolo",2018-07-20,"6",1881,"NUG",1
"Antipolo",2018-07-20,"6",995,"CHX",5
"Antipolo",2018-07-20,"6",2413,"CHX",2
"Antipolo",2018-07-20,"6",2463,"CHX",2
"Antipolo",2018-07-20,"6",1881,"CHX",1
"Antipolo",2018-07-20,"7",75,"NUG",4
"Antipolo",2018-07-20,"7",2522,"NUG",2
"Antipolo",2018-07-20,"7",1670,"NUG",3
"Antipolo",2018-07-20,"7",1002,"NUG",2
"Antipolo",2018-07-20,"7",2381,"NUG",1
"Antipolo",2018-07-20,"7",88,"NUG",2
"Antipolo",2018-07-20,"7",75,"CHX",4
"Antipolo",2018-07-20,"7",2522,"CHX",3
"Antipolo",2018-07-20,"7",1670,"CHX",10
"Antipolo",2018-07-20,"7",1002,"CHX",8
"Antipolo",2018-07-20,"7",2381,"CHX",3
"Antipolo",2018-07-20,"7",88,"CHX",10
"Antipolo",2018-07-20,"8",995,"NUG",5
"Antipolo",2018-07-20,"8",2413,"NUG",3
"Antipolo",2018-07-20,"8",2463,"NUG",4
"Antipolo",2018-07-20,"8",1881,"NUG",4
"Antipolo",2018-07-20,"8",995,"CHX",7
"Antipolo",2018-07-20,"8",2413,"CHX",6
"Antipolo",2018-07-20,"8",2463,"CHX",5
"Antipolo",2018-07-20,"8",1881,"CHX",8
"Antipolo",2018-07-20,"10",75,"NUG",6
"Antipolo",2018-07-20,"10",1670,"NUG",1
"Antipolo",2018-07-20,"10",1002,"NUG",1
"Antipolo",2018-07-20,"10",88,"NUG",2
"Antipolo",2018-07-20,"10",75,"CHX",3
"Antipolo",2018-07-20,"10",2522,"CHX",2
"Antipolo",2018-07-20,"10",1670,"CHX",2
"Antipolo",2018-07-20,"10",1002,"CHX",3
"Antipolo",2018-07-20,"10",2381,"CHX",4
"Antipolo",2018-07-20,"10",88,"CHX",4
"Antipolo",2018-07-20,"11",75,"NUG",2
"Antipolo",2018-07-20,"11",2522,"NUG",1
"Antipolo",2018-07-20,"11",1670,"NUG",2
"Antipolo",2018-07-20,"11",1002,"NUG",3
"Antipolo",2018-07-20,"11",2381,"NUG",1
"Antipolo",2018-07-20,"11",995,"NUG",1
"Antipolo",2018-07-20,"11",2413,"NUG",3
"Antipolo",2018-07-20,"11",1881,"NUG",1
"Antipolo",2018-07-20,"11",88,"NUG",2
"Antipolo",2018-07-20,"11",75,"CHX",3
"Antipolo",2018-07-20,"11",2522,"CHX",3
"Antipolo",2018-07-20,"11",1670,"CHX",2
"Antipolo",2018-07-20,"11",1002,"CHX",4
"Antipolo",2018-07-20,"11",2381,"CHX",2
"Antipolo",2018-07-20,"11",995,"CHX",4
"Antipolo",2018-07-20,"11",2413,"CHX",3
"Antipolo",2018-07-20,"11",2463,"CHX",7
"Antipolo",2018-07-20,"11",1881,"CHX",5
"Antipolo",2018-07-20,"11",88,"CHX",24
"Antipolo",2018-07-20,"12",75,"NUG",1
"Antipolo",2018-07-20,"12",2522,"NUG",1
"Antipolo",2018-07-20,"12",1670,"NUG",2
"Antipolo",2018-07-20,"12",1002,"NUG",2
"Antipolo",2018-07-20,"12",2381,"NUG",1
"Antipolo",2018-07-20,"12",995,"NUG",2
"Antipolo",2018-07-20,"12",2413,"NUG",1
"Antipolo",2018-07-20,"12",1881,"NUG",3
"Antipolo",2018-07-20,"12",88,"NUG",1
"Antipolo",2018-07-20,"12",75,"CHX",4
"Antipolo",2018-07-20,"12",2522,"CHX",1
"Antipolo",2018-07-20,"12",1670,"CHX",4
"Antipolo",2018-07-20,"12",1002,"CHX",3
"Antipolo",2018-07-20,"12",2381,"CHX",1
"Antipolo",2018-07-20,"12",995,"CHX",3
"Antipolo",2018-07-20,"12",2413,"CHX",3
"Antipolo",2018-07-20,"12",2463,"CHX",4
"Antipolo",2018-07-20,"12",1881,"CHX",8
"Antipolo",2018-07-20,"12",88,"CHX",8
"Antipolo",2018-07-20,"13",75,"NUG",2
"Antipolo",2018-07-20,"13",2522,"NUG",2
"Antipolo",2018-07-20,"13",1670,"NUG",1
"Antipolo",2018-07-20,"13",1002,"NUG",1
"Antipolo",2018-07-20,"13",2381,"NUG",2
"Antipolo",2018-07-20,"13",995,"NUG",2
"Antipolo",2018-07-20,"13",2413,"NUG",4
"Antipolo",2018-07-20,"13",2463,"NUG",3
"Antipolo",2018-07-20,"13",1881,"NUG",1
"Antipolo",2018-07-20,"13",88,"NUG",2
"Antipolo",2018-07-20,"13",75,"CHX",6
"Antipolo",2018-07-20,"13",2522,"CHX",2
"Antipolo",2018-07-20,"13",1670,"CHX",2
"Antipolo",2018-07-20,"13",1002,"CHX",1
"Antipolo",2018-07-20,"13",2381,"CHX",2
"Antipolo",2018-07-20,"13",995,"CHX",3
"Antipolo",2018-07-20,"13",2413,"CHX",7
"Antipolo",2018-07-20,"13",2463,"CHX",3
"Antipolo",2018-07-20,"13",1881,"CHX",4
"Antipolo",2018-07-20,"13",88,"CHX",4
"Antipolo",2018-07-20,"14",75,"NUG",3
"Antipolo",2018-07-20,"14",1670,"NUG",1
"Antipolo",2018-07-20,"14",1002,"NUG",4
"Antipolo",2018-07-20,"14",2381,"NUG",2
"Antipolo",2018-07-20,"14",75,"CHX",3
"Antipolo",2018-07-20,"14",1670,"CHX",5
"Antipolo",2018-07-20,"14",1002,"CHX",4
"Antipolo",2018-07-20,"14",2381,"CHX",5
"Antipolo",2018-07-20,"14",88,"CHX",16
"Antipolo",2018-07-20,"15",995,"NUG",4
"Antipolo",2018-07-20,"15",2413,"NUG",1
"Antipolo",2018-07-20,"15",2463,"NUG",2
"Antipolo",2018-07-20,"15",1881,"NUG",3
"Antipolo",2018-07-20,"15",995,"CHX",5
"Antipolo",2018-07-20,"15",2413,"CHX",3
"Antipolo",2018-07-20,"15",2463,"CHX",6
"Antipolo",2018-07-20,"15",1881,"CHX",6
"Antipolo",2018-07-20,"16",75,"NUG",5
"Antipolo",2018-07-20,"16",2522,"NUG",2
"Antipolo",2018-07-20,"16",1670,"NUG",2
"Antipolo",2018-07-20,"16",1002,"NUG",1
"Antipolo",2018-07-20,"16",2381,"NUG",3
"Antipolo",2018-07-20,"16",88,"NUG",2
"Antipolo",2018-07-20,"16",75,"CHX",6
"Antipolo",2018-07-20,"16",2522,"CHX",2
"Antipolo",2018-07-20,"16",1670,"CHX",8
"Antipolo",2018-07-20,"16",1002,"CHX",5
"Antipolo",2018-07-20,"16",2381,"CHX",2
"Antipolo",2018-07-20,"16",88,"CHX",9
"Antipolo",2018-07-20,"17",995,"NUG",4
"Antipolo",2018-07-20,"17",2413,"NUG",6
"Antipolo",2018-07-20,"17",2463,"NUG",3
"Antipolo",2018-07-20,"17",1881,"NUG",2
"Antipolo",2018-07-20,"17",995,"CHX",3
"Antipolo",2018-07-20,"17",2413,"CHX",9
"Antipolo",2018-07-20,"17",2463,"CHX",9
"Antipolo",2018-07-20,"17",1881,"CHX",6
"Antipolo",2018-07-20,"18",75,"NUG",7
"Antipolo",2018-07-20,"18",2522,"NUG",1
"Antipolo",2018-07-20,"18",1670,"NUG",6
"Antipolo",2018-07-20,"18",1002,"NUG",7
"Antipolo",2018-07-20,"18",2381,"NUG",5
"Antipolo",2018-07-20,"18",88,"NUG",4
"Antipolo",2018-07-20,"18",75,"CHX",14
"Antipolo",2018-07-20,"18",2522,"CHX",6
"Antipolo",2018-07-20,"18",1670,"CHX",12
"Antipolo",2018-07-20,"18",1002,"CHX",10
"Antipolo",2018-07-20,"18",2381,"CHX",10
"Antipolo",2018-07-20,"18",88,"CHX",16
"Antipolo",2018-07-20,"19",995,"NUG",7
"Antipolo",2018-07-20,"19",2413,"NUG",7
"Antipolo",2018-07-20,"19",2463,"NUG",7
"Antipolo",2018-07-20,"19",1881,"NUG",2
"Antipolo",2018-07-20,"19",995,"CHX",10
"Antipolo",2018-07-20,"19",2413,"CHX",17
"Antipolo",2018-07-20,"19",2463,"CHX",5
"Antipolo",2018-07-20,"19",1881,"CHX",14
"Antipolo",2018-07-22,"5",75,"NUG",1
"Antipolo",2018-07-22,"5",1670,"NUG",2
"Antipolo",2018-07-22,"5",75,"CHX",3
"Antipolo",2018-07-22,"5",1670,"CHX",4
"Antipolo",2018-07-22,"5",88,"CHX",3
"Antipolo",2018-07-22,"6",995,"NUG",1
"Antipolo",2018-07-22,"6",2413,"NUG",1
"Antipolo",2018-07-22,"6",2463,"NUG",1
"Antipolo",2018-07-22,"6",1881,"NUG",1
"Antipolo",2018-07-22,"6",995,"CHX",2
"Antipolo",2018-07-22,"6",2413,"CHX",2
"Antipolo",2018-07-22,"6",2463,"CHX",2
"Antipolo",2018-07-22,"6",1881,"CHX",2
"Antipolo",2018-07-22,"7",75,"NUG",4
"Antipolo",2018-07-22,"7",2522,"NUG",2
"Antipolo",2018-07-22,"7",1670,"NUG",6
"Antipolo",2018-07-22,"7",1002,"NUG",2
"Antipolo",2018-07-22,"7",2381,"NUG",1
"Antipolo",2018-07-22,"7",88,"NUG",4
"Antipolo",2018-07-22,"7",75,"CHX",4
"Antipolo",2018-07-22,"7",2522,"CHX",2
"Antipolo",2018-07-22,"7",1670,"CHX",8
"Antipolo",2018-07-22,"7",1002,"CHX",2
"Antipolo",2018-07-22,"7",2381,"CHX",2
"Antipolo",2018-07-22,"7",88,"CHX",14
"Antipolo",2018-07-22,"8",995,"NUG",2
"Antipolo",2018-07-22,"8",2413,"NUG",2
"Antipolo",2018-07-22,"8",2463,"NUG",1
"Antipolo",2018-07-22,"8",1881,"NUG",1
"Antipolo",2018-07-22,"8",995,"CHX",4
"Antipolo",2018-07-22,"8",2413,"CHX",6
"Antipolo",2018-07-22,"8",2463,"CHX",1
"Antipolo",2018-07-22,"8",1881,"CHX",7
"Antipolo",2018-07-22,"10",75,"NUG",1
"Antipolo",2018-07-22,"10",1670,"NUG",1
"Antipolo",2018-07-22,"10",1002,"NUG",3
"Antipolo",2018-07-22,"10",88,"NUG",2
"Antipolo",2018-07-22,"10",75,"CHX",3
"Antipolo",2018-07-22,"10",2522,"CHX",2
"Antipolo",2018-07-22,"10",1670,"CHX",1
"Antipolo",2018-07-22,"10",1002,"CHX",2
"Antipolo",2018-07-22,"10",2381,"CHX",2
"Antipolo",2018-07-22,"10",88,"CHX",1
"Antipolo",2018-07-22,"11",75,"NUG",1
"Antipolo",2018-07-22,"11",2522,"NUG",2
"Antipolo",2018-07-22,"11",1670,"NUG",2
"Antipolo",2018-07-22,"11",1002,"NUG",1
"Antipolo",2018-07-22,"11",2381,"NUG",1
"Antipolo",2018-07-22,"11",995,"NUG",1
"Antipolo",2018-07-22,"11",2463,"NUG",1
"Antipolo",2018-07-22,"11",75,"CHX",3
"Antipolo",2018-07-22,"11",2522,"CHX",2
"Antipolo",2018-07-22,"11",1670,"CHX",8
"Antipolo",2018-07-22,"11",1002,"CHX",4
"Antipolo",2018-07-22,"11",2381,"CHX",2
"Antipolo",2018-07-22,"11",995,"CHX",4
"Antipolo",2018-07-22,"11",2413,"CHX",1
"Antipolo",2018-07-22,"11",2463,"CHX",1
"Antipolo",2018-07-22,"11",88,"CHX",8
"Antipolo",2018-07-22,"12",75,"NUG",2
"Antipolo",2018-07-22,"12",2522,"NUG",1
"Antipolo",2018-07-22,"12",1670,"NUG",1
"Antipolo",2018-07-22,"12",1002,"NUG",3
"Antipolo",2018-07-22,"12",2381,"NUG",1
"Antipolo",2018-07-22,"12",995,"NUG",2
"Antipolo",2018-07-22,"12",2413,"NUG",3
"Antipolo",2018-07-22,"12",2463,"NUG",1
"Antipolo",2018-07-22,"12",1881,"NUG",2
"Antipolo",2018-07-22,"12",88,"NUG",3
"Antipolo",2018-07-22,"12",75,"CHX",6
"Antipolo",2018-07-22,"12",2522,"CHX",3
"Antipolo",2018-07-22,"12",1670,"CHX",3
"Antipolo",2018-07-22,"12",1002,"CHX",2
"Antipolo",2018-07-22,"12",2381,"CHX",3
"Antipolo",2018-07-22,"12",995,"CHX",2
"Antipolo",2018-07-22,"12",2413,"CHX",2
"Antipolo",2018-07-22,"12",2463,"CHX",2
"Antipolo",2018-07-22,"12",1881,"CHX",5
"Antipolo",2018-07-22,"12",88,"CHX",16
"Antipolo",2018-07-22,"13",75,"NUG",1
"Antipolo",2018-07-22,"13",2522,"NUG",1
"Antipolo",2018-07-22,"13",1670,"NUG",1
"Antipolo",2018-07-22,"13",2381,"NUG",1
"Antipolo",2018-07-22,"13",995,"NUG",2
"Antipolo",2018-07-22,"13",2413,"NUG",2
"Antipolo",2018-07-22,"13",2463,"NUG",3
"Antipolo",2018-07-22,"13",1881,"NUG",1
"Antipolo",2018-07-22,"13",88,"NUG",3
"Antipolo",2018-07-22,"13",75,"CHX",4
"Antipolo",2018-07-22,"13",1670,"CHX",1
"Antipolo",2018-07-22,"13",1002,"CHX",5
"Antipolo",2018-07-22,"13",2381,"CHX",1
"Antipolo",2018-07-22,"13",995,"CHX",7
"Antipolo",2018-07-22,"13",2413,"CHX",3
"Antipolo",2018-07-22,"13",2463,"CHX",4
"Antipolo",2018-07-22,"13",1881,"CHX",8
"Antipolo",2018-07-22,"13",88,"CHX",7
"Antipolo",2018-07-22,"14",75,"NUG",1
"Antipolo",2018-07-22,"14",1670,"NUG",6
"Antipolo",2018-07-22,"14",1002,"NUG",5
"Antipolo",2018-07-22,"14",2381,"NUG",3
"Antipolo",2018-07-22,"14",88,"NUG",2
"Antipolo",2018-07-22,"14",75,"CHX",4
"Antipolo",2018-07-22,"14",2522,"CHX",3
"Antipolo",2018-07-22,"14",1670,"CHX",9
"Antipolo",2018-07-22,"14",1002,"CHX",4
"Antipolo",2018-07-22,"14",2381,"CHX",11
"Antipolo",2018-07-22,"14",88,"CHX",5
"Antipolo",2018-07-22,"15",995,"NUG",1
"Antipolo",2018-07-22,"15",2413,"NUG",2
"Antipolo",2018-07-22,"15",2463,"NUG",1
"Antipolo",2018-07-22,"15",1881,"NUG",2
"Antipolo",2018-07-22,"15",995,"CHX",4
"Antipolo",2018-07-22,"15",2413,"CHX",2
"Antipolo",2018-07-22,"15",2463,"CHX",4
"Antipolo",2018-07-22,"15",1881,"CHX",7
"Antipolo",2018-07-22,"16",75,"NUG",1
"Antipolo",2018-07-22,"16",2522,"NUG",1
"Antipolo",2018-07-22,"16",1670,"NUG",7
"Antipolo",2018-07-22,"16",2381,"NUG",2
"Antipolo",2018-07-22,"16",88,"NUG",2
"Antipolo",2018-07-22,"16",75,"CHX",6
"Antipolo",2018-07-22,"16",2522,"CHX",2
"Antipolo",2018-07-22,"16",1670,"CHX",6
"Antipolo",2018-07-22,"16",1002,"CHX",3
"Antipolo",2018-07-22,"16",2381,"CHX",6
"Antipolo",2018-07-22,"16",88,"CHX",8
"Antipolo",2018-07-22,"17",995,"NUG",2
"Antipolo",2018-07-22,"17",2413,"NUG",7
"Antipolo",2018-07-22,"17",2463,"NUG",1
"Antipolo",2018-07-22,"17",1881,"NUG",1
"Antipolo",2018-07-22,"17",995,"CHX",4
"Antipolo",2018-07-22,"17",2413,"CHX",7
"Antipolo",2018-07-22,"17",2463,"CHX",14
"Antipolo",2018-07-22,"17",1881,"CHX",13
"Antipolo",2018-07-22,"18",75,"NUG",7
"Antipolo",2018-07-22,"18",2522,"NUG",2
"Antipolo",2018-07-22,"18",1670,"NUG",8
"Antipolo",2018-07-22,"18",1002,"NUG",5
"Antipolo",2018-07-22,"18",2381,"NUG",7
"Antipolo",2018-07-22,"18",88,"NUG",9
"Antipolo",2018-07-22,"18",75,"CHX",18
"Antipolo",2018-07-22,"18",2522,"CHX",8
"Antipolo",2018-07-22,"18",1670,"CHX",13
"Antipolo",2018-07-22,"18",1002,"CHX",15
"Antipolo",2018-07-22,"18",2381,"CHX",7
"Antipolo",2018-07-22,"18",88,"CHX",12
"Antipolo",2018-07-22,"19",995,"NUG",3
"Antipolo",2018-07-22,"19",2413,"NUG",2
"Antipolo",2018-07-22,"19",2463,"NUG",5
"Antipolo",2018-07-22,"19",1881,"NUG",5
"Antipolo",2018-07-22,"19",995,"CHX",13
"Antipolo",2018-07-22,"19",2413,"CHX",5
"Antipolo",2018-07-22,"19",2463,"CHX",4
"Antipolo",2018-07-22,"19",1881,"CHX",12
