"location","date","hour","store_code","item","qty"
"Antipolo","2018-07-16",5,75,"CHX",1
"Antipolo","2018-07-16",5,1670,"CHX",1
"Antipolo","2018-07-16",5,1881,"CHX",2
"Antipolo","2018-07-16",6,75,"CHX",1
"Antipolo","2018-07-16",6,1670,"CHX",1
"Antipolo","2018-07-16",7,75,"CHX",1
"Antipolo","2018-07-16",7,1670,"CHX",1
"Antipolo","2018-07-16",7,1881,"CHX",1
"Antipolo","2018-07-16",7,2413,"CHX",1
"Antipolo","2018-07-16",8,75,"CHX",2
"Antipolo","2018-07-16",8,1670,"CHX",1
"Antipolo","2018-07-16",8,2381,"CHX",1
"Antipolo","2018-07-16",8,2463,"CHX",2
"Antipolo","2018-07-16",9,75,"CHX",1
"Antipolo","2018-07-16",9,1881,"CHX",2
"Antipolo","2018-07-16",9,2381,"CHX",1
"Antipolo","2018-07-16",9,2413,"CHX",1
"Antipolo","2018-07-16",9,2463,"CHX",2
"Antipolo","2018-07-16",10,75,"CHX",1
"Antipolo","2018-07-16",10,88,"CHX",3
"Antipolo","2018-07-16",10,995,"CHX",1
"Antipolo","2018-07-16",10,1670,"CHX",1
"Antipolo","2018-07-16",10,2463,"CHX",4
"Antipolo","2018-07-16",11,75,"CHX",4
"Antipolo","2018-07-16",11,88,"CHX",1
"Antipolo","2018-07-16",11,995,"CHX",2
"Antipolo","2018-07-16",11,1670,"CHX",4
"Antipolo","2018-07-16",11,1881,"CHX",9
"Antipolo","2018-07-16",11,2381,"CHX",2
"Antipolo","2018-07-16",11,2413,"CHX",3
"Antipolo","2018-07-16",11,2463,"CHX",1
"Antipolo","2018-07-16",12,75,"CHX",5
"Antipolo","2018-07-16",12,88,"CHX",4
"Antipolo","2018-07-16",12,995,"CHX",3
"Antipolo","2018-07-16",12,1002,"CHX",1
"Antipolo","2018-07-16",12,1670,"CHX",3
"Antipolo","2018-07-16",12,1881,"CHX",4
"Antipolo","2018-07-16",12,2381,"CHX",1
"Antipolo","2018-07-16",12,2413,"CHX",2
"Antipolo","2018-07-16",12,2463,"CHX",3
"Antipolo","2018-07-16",12,2522,"CHX",1
"Antipolo","2018-07-16",13,75,"CHX",1
"Antipolo","2018-07-16",13,88,"CHX",6
"Antipolo","2018-07-16",13,995,"CHX",1
"Antipolo","2018-07-16",13,1670,"CHX",1
"Antipolo","2018-07-16",13,1881,"CHX",1
"Antipolo","2018-07-16",13,2463,"CHX",1
"Antipolo","2018-07-16",13,2522,"CHX",1
"Antipolo","2018-07-16",14,88,"CHX",1
"Antipolo","2018-07-16",14,1670,"CHX",1
"Antipolo","2018-07-16",14,1881,"CHX",1
"Antipolo","2018-07-16",14,2522,"CHX",2
"Antipolo","2018-07-16",15,88,"CHX",3
"Antipolo","2018-07-16",15,995,"CHX",2
"Antipolo","2018-07-16",15,1670,"CHX",2
"Antipolo","2018-07-16",15,2381,"CHX",1
"Antipolo","2018-07-16",15,2413,"CHX",5
"Antipolo","2018-07-16",16,75,"CHX",2
"Antipolo","2018-07-16",16,1670,"CHX",1
"Antipolo","2018-07-16",16,1881,"CHX",2
"Antipolo","2018-07-16",16,2413,"CHX",2
"Antipolo","2018-07-16",17,75,"CHX",2
"Antipolo","2018-07-16",17,88,"CHX",2
"Antipolo","2018-07-16",17,1670,"CHX",3
"Antipolo","2018-07-16",17,1881,"CHX",4
"Antipolo","2018-07-16",17,2381,"CHX",3
"Antipolo","2018-07-16",17,2463,"CHX",1
"Antipolo","2018-07-16",17,2522,"CHX",1
"Antipolo","2018-07-16",18,75,"CHX",1
"Antipolo","2018-07-16",18,88,"CHX",3
"Antipolo","2018-07-16",18,995,"CHX",3
"Antipolo","2018-07-16",18,1670,"CHX",7
"Antipolo","2018-07-16",18,1881,"CHX",2
"Antipolo","2018-07-16",18,2381,"CHX",1
"Antipolo","2018-07-16",18,2413,"CHX",3
"Antipolo","2018-07-16",18,2463,"CHX",1
"Antipolo","2018-07-16",18,2522,"CHX",1
"Antipolo","2018-07-16",19,88,"CHX",5
"Antipolo","2018-07-16",19,1002,"CHX",1
"Antipolo","2018-07-16",19,1881,"CHX",1
"Antipolo","2018-07-16",19,2413,"CHX",8
"Antipolo","2018-07-16",19,2522,"CHX",1
"Antipolo","2018-07-16",20,75,"CHX",5
"Antipolo","2018-07-16",20,88,"CHX",2
"Antipolo","2018-07-16",20,995,"CHX",1
"Antipolo","2018-07-16",20,1002,"CHX",2
"Antipolo","2018-07-16",20,1881,"CHX",2
"Antipolo","2018-07-16",20,2522,"CHX",1
"Antipolo","2018-07-16",21,995,"CHX",1
"Antipolo","2018-07-16",21,1002,"CHX",2
"Antipolo","2018-07-16",22,995,"CHX",1
"Antipolo","2018-07-16",22,1002,"CHX",1
"Antipolo","2018-07-16",7,995,"CHX",2
"Antipolo","2018-07-16",7,1002,"CHX",2
"Antipolo","2018-07-16",7,2413,"CHX",2
"Antipolo","2018-07-16",8,88,"CHX",2
"Antipolo","2018-07-16",8,995,"CHX",2
"Antipolo","2018-07-16",8,2413,"CHX",2
"Antipolo","2018-07-16",9,88,"CHX",2
"Antipolo","2018-07-16",10,88,"CHX",2
"Antipolo","2018-07-16",10,995,"CHX",6
"Antipolo","2018-07-16",10,1670,"CHX",4
"Antipolo","2018-07-16",10,2413,"CHX",2
"Antipolo","2018-07-16",11,75,"CHX",2
"Antipolo","2018-07-16",11,995,"CHX",2
"Antipolo","2018-07-16",11,1002,"CHX",2
"Antipolo","2018-07-16",12,88,"CHX",4
"Antipolo","2018-07-16",12,1002,"CHX",2
"Antipolo","2018-07-16",12,1670,"CHX",2
"Antipolo","2018-07-16",12,1881,"CHX",4
"Antipolo","2018-07-16",12,2522,"CHX",2
"Antipolo","2018-07-16",13,88,"CHX",4
"Antipolo","2018-07-16",13,1002,"CHX",2
"Antipolo","2018-07-16",14,75,"CHX",2
"Antipolo","2018-07-16",14,995,"CHX",4
"Antipolo","2018-07-16",14,2463,"CHX",2
"Antipolo","2018-07-16",15,2381,"CHX",2
"Antipolo","2018-07-16",15,2522,"CHX",2
"Antipolo","2018-07-16",16,995,"CHX",2
"Antipolo","2018-07-16",17,75,"CHX",6
"Antipolo","2018-07-16",17,88,"CHX",2
"Antipolo","2018-07-16",18,75,"CHX",4
"Antipolo","2018-07-16",18,88,"CHX",4
"Antipolo","2018-07-16",18,2381,"CHX",2
"Antipolo","2018-07-16",18,2413,"CHX",2
"Antipolo","2018-07-16",19,995,"CHX",2
"Antipolo","2018-07-16",19,2463,"CHX",2
"Antipolo","2018-07-16",20,75,"CHX",2
"Antipolo","2018-07-16",20,995,"CHX",2
"Antipolo","2018-07-16",20,1002,"CHX",2
"Antipolo","2018-07-16",20,1881,"CHX",4
"Antipolo","2018-07-16",20,2463,"CHX",4
"Antipolo","2018-07-16",22,2463,"CHX",2
"Antipolo","2018-07-17",5,2381,"CHX",2
"Antipolo","2018-07-17",5,2463,"CHX",1
"Antipolo","2018-07-17",6,75,"CHX",2
"Antipolo","2018-07-17",6,995,"CHX",2
"Antipolo","2018-07-17",6,1881,"CHX",1
"Antipolo","2018-07-17",7,88,"CHX",3
"Antipolo","2018-07-17",7,1670,"CHX",2
"Antipolo","2018-07-17",7,1881,"CHX",1
"Antipolo","2018-07-17",7,2381,"CHX",1
"Antipolo","2018-07-17",8,75,"CHX",2
"Antipolo","2018-07-17",8,88,"CHX",1
"Antipolo","2018-07-17",8,995,"CHX",1
"Antipolo","2018-07-17",8,2381,"CHX",1
"Antipolo","2018-07-17",8,2463,"CHX",4
"Antipolo","2018-07-17",9,88,"CHX",1
"Antipolo","2018-07-17",9,995,"CHX",3
"Antipolo","2018-07-17",9,1670,"CHX",5
"Antipolo","2018-07-17",9,1881,"CHX",1
"Antipolo","2018-07-17",9,2413,"CHX",2
"Antipolo","2018-07-17",10,88,"CHX",3
"Antipolo","2018-07-17",10,995,"CHX",3
"Antipolo","2018-07-17",10,1002,"CHX",1
"Antipolo","2018-07-17",10,1670,"CHX",1
"Antipolo","2018-07-17",10,2413,"CHX",3
"Antipolo","2018-07-17",11,88,"CHX",2
"Antipolo","2018-07-17",11,995,"CHX",2
"Antipolo","2018-07-17",11,1002,"CHX",6
"Antipolo","2018-07-17",11,1670,"CHX",2
"Antipolo","2018-07-17",11,1881,"CHX",2
"Antipolo","2018-07-17",11,2381,"CHX",7
"Antipolo","2018-07-17",11,2413,"CHX",6
"Antipolo","2018-07-17",11,2463,"CHX",2
"Antipolo","2018-07-17",12,75,"CHX",3
"Antipolo","2018-07-17",12,88,"CHX",4
"Antipolo","2018-07-17",12,995,"CHX",5
"Antipolo","2018-07-17",12,1670,"CHX",1
"Antipolo","2018-07-17",12,1881,"CHX",5
"Antipolo","2018-07-17",12,2413,"CHX",4
"Antipolo","2018-07-17",12,2463,"CHX",1
"Antipolo","2018-07-17",12,2522,"CHX",2
"Antipolo","2018-07-17",13,75,"CHX",2
"Antipolo","2018-07-17",13,88,"CHX",2
"Antipolo","2018-07-17",13,995,"CHX",1
"Antipolo","2018-07-17",13,1002,"CHX",1
"Antipolo","2018-07-17",13,1670,"CHX",4
"Antipolo","2018-07-17",13,1881,"CHX",3
"Antipolo","2018-07-17",13,2381,"CHX",1
"Antipolo","2018-07-17",13,2463,"CHX",2
"Antipolo","2018-07-17",13,2522,"CHX",2
"Antipolo","2018-07-17",14,88,"CHX",2
"Antipolo","2018-07-17",14,1670,"CHX",1
"Antipolo","2018-07-17",14,1881,"CHX",2
"Antipolo","2018-07-17",14,2413,"CHX",2
"Antipolo","2018-07-17",14,2463,"CHX",1
"Antipolo","2018-07-17",14,2522,"CHX",2
"Antipolo","2018-07-17",15,75,"CHX",4
"Antipolo","2018-07-17",15,88,"CHX",1
"Antipolo","2018-07-17",15,1002,"CHX",1
"Antipolo","2018-07-17",15,1670,"CHX",3
"Antipolo","2018-07-17",15,2381,"CHX",1
"Antipolo","2018-07-17",15,2413,"CHX",1
"Antipolo","2018-07-17",16,88,"CHX",2
"Antipolo","2018-07-17",16,1002,"CHX",2
"Antipolo","2018-07-17",16,1670,"CHX",2
"Antipolo","2018-07-17",16,1881,"CHX",2
"Antipolo","2018-07-17",16,2413,"CHX",1
"Antipolo","2018-07-17",17,75,"CHX",1
"Antipolo","2018-07-17",17,88,"CHX",2
"Antipolo","2018-07-17",17,995,"CHX",1
"Antipolo","2018-07-17",17,1002,"CHX",1
"Antipolo","2018-07-17",17,1881,"CHX",1
"Antipolo","2018-07-17",17,2413,"CHX",1
"Antipolo","2018-07-17",17,2463,"CHX",1
"Antipolo","2018-07-17",18,75,"CHX",5
"Antipolo","2018-07-17",18,88,"CHX",1
"Antipolo","2018-07-17",18,995,"CHX",1
"Antipolo","2018-07-17",18,1881,"CHX",1
"Antipolo","2018-07-17",18,2413,"CHX",1
"Antipolo","2018-07-17",18,2522,"CHX",5
"Antipolo","2018-07-17",19,75,"CHX",2
"Antipolo","2018-07-17",19,88,"CHX",7
"Antipolo","2018-07-17",19,995,"CHX",1
"Antipolo","2018-07-17",19,1670,"CHX",5
"Antipolo","2018-07-17",19,1881,"CHX",2
"Antipolo","2018-07-17",19,2381,"CHX",1
"Antipolo","2018-07-17",19,2463,"CHX",3
"Antipolo","2018-07-17",20,88,"CHX",2
"Antipolo","2018-07-17",20,1881,"CHX",1
"Antipolo","2018-07-17",20,2381,"CHX",1
"Antipolo","2018-07-17",20,2413,"CHX",4
"Antipolo","2018-07-17",21,1881,"CHX",2
"Antipolo","2018-07-17",21,2413,"CHX",4
"Antipolo","2018-07-17",21,2463,"CHX",1
"Antipolo","2018-07-17",22,1881,"CHX",2
"Antipolo","2018-07-17",22,2463,"CHX",2
"Antipolo","2018-07-17",23,1881,"CHX",2
"Antipolo","2018-07-17",23,2413,"CHX",3
"Antipolo","2018-07-17",6,995,"CHX",2
"Antipolo","2018-07-17",8,88,"CHX",2
"Antipolo","2018-07-17",9,1670,"CHX",2
"Antipolo","2018-07-17",10,1002,"CHX",2
"Antipolo","2018-07-17",10,2463,"CHX",4
"Antipolo","2018-07-17",10,2522,"CHX",2
"Antipolo","2018-07-17",11,75,"CHX",2
"Antipolo","2018-07-17",11,88,"CHX",2
"Antipolo","2018-07-17",11,1881,"CHX",2
"Antipolo","2018-07-17",11,2413,"CHX",4
"Antipolo","2018-07-17",12,88,"CHX",2
"Antipolo","2018-07-17",12,1002,"CHX",2
"Antipolo","2018-07-17",12,1670,"CHX",2
"Antipolo","2018-07-17",12,2413,"CHX",4
"Antipolo","2018-07-17",13,75,"CHX",4
"Antipolo","2018-07-17",13,1002,"CHX",2
"Antipolo","2018-07-17",13,1881,"CHX",6
"Antipolo","2018-07-17",14,75,"CHX",2
"Antipolo","2018-07-17",14,88,"CHX",2
"Antipolo","2018-07-17",15,88,"CHX",2
"Antipolo","2018-07-17",15,995,"CHX",2
"Antipolo","2018-07-17",15,1002,"CHX",2
"Antipolo","2018-07-17",15,2381,"CHX",2
"Antipolo","2018-07-17",15,2413,"CHX",2
"Antipolo","2018-07-17",16,1670,"CHX",2
"Antipolo","2018-07-17",16,2463,"CHX",4
"Antipolo","2018-07-17",17,75,"CHX",2
"Antipolo","2018-07-17",17,2381,"CHX",2
"Antipolo","2018-07-17",18,1670,"CHX",6
"Antipolo","2018-07-17",18,2522,"CHX",2
"Antipolo","2018-07-17",19,995,"CHX",2
"Antipolo","2018-07-17",19,1670,"CHX",4
"Antipolo","2018-07-17",19,2413,"CHX",4
"Antipolo","2018-07-17",20,75,"CHX",2
"Antipolo","2018-07-17",20,1002,"CHX",2
"Antipolo","2018-07-17",21,88,"CHX",2
"Antipolo","2018-07-17",21,1002,"CHX",2
"Antipolo","2018-07-18",5,75,"CHX",1
"Antipolo","2018-07-18",6,88,"CHX",1
"Antipolo","2018-07-18",6,1881,"CHX",1
"Antipolo","2018-07-18",6,2463,"CHX",1
"Antipolo","2018-07-18",7,75,"CHX",3
"Antipolo","2018-07-18",7,88,"CHX",1
"Antipolo","2018-07-18",7,1670,"CHX",1
"Antipolo","2018-07-18",7,1881,"CHX",1
"Antipolo","2018-07-18",7,2413,"CHX",1
"Antipolo","2018-07-18",8,88,"CHX",4
"Antipolo","2018-07-18",8,995,"CHX",2
"Antipolo","2018-07-18",8,1670,"CHX",1
"Antipolo","2018-07-18",8,2413,"CHX",1
"Antipolo","2018-07-18",9,88,"CHX",2
"Antipolo","2018-07-18",9,995,"CHX",2
"Antipolo","2018-07-18",9,1002,"CHX",2
"Antipolo","2018-07-18",9,2381,"CHX",1
"Antipolo","2018-07-18",9,2413,"CHX",1
"Antipolo","2018-07-18",9,2463,"CHX",1
"Antipolo","2018-07-18",10,75,"CHX",3
"Antipolo","2018-07-18",10,88,"CHX",8
"Antipolo","2018-07-18",10,995,"CHX",3
"Antipolo","2018-07-18",10,1670,"CHX",1
"Antipolo","2018-07-18",10,1881,"CHX",2
"Antipolo","2018-07-18",10,2413,"CHX",1
"Antipolo","2018-07-18",10,2522,"CHX",1
"Antipolo","2018-07-18",11,88,"CHX",5
"Antipolo","2018-07-18",11,1670,"CHX",2
"Antipolo","2018-07-18",11,1881,"CHX",2
"Antipolo","2018-07-18",11,2381,"CHX",1
"Antipolo","2018-07-18",11,2413,"CHX",1
"Antipolo","2018-07-18",11,2522,"CHX",1
"Antipolo","2018-07-18",12,75,"CHX",2
"Antipolo","2018-07-18",12,88,"CHX",7
"Antipolo","2018-07-18",12,1002,"CHX",3
"Antipolo","2018-07-18",12,1670,"CHX",3
"Antipolo","2018-07-18",12,1881,"CHX",1
"Antipolo","2018-07-18",12,2413,"CHX",2
"Antipolo","2018-07-18",13,75,"CHX",1
"Antipolo","2018-07-18",13,88,"CHX",1
"Antipolo","2018-07-18",13,995,"CHX",4
"Antipolo","2018-07-18",13,1670,"CHX",5
"Antipolo","2018-07-18",13,1881,"CHX",1
"Antipolo","2018-07-18",13,2413,"CHX",2
"Antipolo","2018-07-18",13,2463,"CHX",1
"Antipolo","2018-07-18",14,75,"CHX",1
"Antipolo","2018-07-18",14,1002,"CHX",1
"Antipolo","2018-07-18",14,1670,"CHX",2
"Antipolo","2018-07-18",14,2463,"CHX",1
"Antipolo","2018-07-18",15,75,"CHX",1
"Antipolo","2018-07-18",15,88,"CHX",1
"Antipolo","2018-07-18",15,1002,"CHX",6
"Antipolo","2018-07-18",15,1670,"CHX",2
"Antipolo","2018-07-18",15,1881,"CHX",1
"Antipolo","2018-07-18",15,2413,"CHX",1
"Antipolo","2018-07-18",15,2522,"CHX",1
"Antipolo","2018-07-18",16,75,"CHX",2
"Antipolo","2018-07-18",16,995,"CHX",1
"Antipolo","2018-07-18",16,1670,"CHX",2
"Antipolo","2018-07-18",16,1881,"CHX",3
"Antipolo","2018-07-18",16,2381,"CHX",7
"Antipolo","2018-07-18",16,2413,"CHX",4
"Antipolo","2018-07-18",17,88,"CHX",1
"Antipolo","2018-07-18",17,1670,"CHX",1
"Antipolo","2018-07-18",17,1881,"CHX",2
"Antipolo","2018-07-18",17,2413,"CHX",1
"Antipolo","2018-07-18",17,2463,"CHX",1
"Antipolo","2018-07-18",17,2522,"CHX",2
"Antipolo","2018-07-18",18,75,"CHX",6
"Antipolo","2018-07-18",18,88,"CHX",3
"Antipolo","2018-07-18",18,995,"CHX",1
"Antipolo","2018-07-18",18,1002,"CHX",4
"Antipolo","2018-07-18",18,1881,"CHX",6
"Antipolo","2018-07-18",18,2413,"CHX",2
"Antipolo","2018-07-18",18,2463,"CHX",3
"Antipolo","2018-07-18",18,2522,"CHX",3
"Antipolo","2018-07-18",19,88,"CHX",1
"Antipolo","2018-07-18",19,995,"CHX",1
"Antipolo","2018-07-18",19,1881,"CHX",4
"Antipolo","2018-07-18",19,2381,"CHX",1
"Antipolo","2018-07-18",19,2413,"CHX",5
"Antipolo","2018-07-18",20,88,"CHX",6
"Antipolo","2018-07-18",20,1002,"CHX",1
"Antipolo","2018-07-18",20,1670,"CHX",2
"Antipolo","2018-07-18",20,1881,"CHX",3
"Antipolo","2018-07-18",20,2413,"CHX",1
"Antipolo","2018-07-18",21,88,"CHX",2
"Antipolo","2018-07-18",21,1670,"CHX",1
"Antipolo","2018-07-18",21,2463,"CHX",1
"Antipolo","2018-07-18",22,88,"CHX",1
"Antipolo","2018-07-18",22,995,"CHX",3
"Antipolo","2018-07-18",23,1881,"CHX",2
"Antipolo","2018-07-18",8,1670,"CHX",2
"Antipolo","2018-07-18",9,2413,"CHX",2
"Antipolo","2018-07-18",9,2463,"CHX",4
"Antipolo","2018-07-18",10,1002,"CHX",4
"Antipolo","2018-07-18",10,1881,"CHX",2
"Antipolo","2018-07-18",11,88,"CHX",2
"Antipolo","2018-07-18",11,1881,"CHX",2
"Antipolo","2018-07-18",12,88,"CHX",4
"Antipolo","2018-07-18",12,1002,"CHX",4
"Antipolo","2018-07-18",12,1881,"CHX",2
"Antipolo","2018-07-18",13,75,"CHX",2
"Antipolo","2018-07-18",13,88,"CHX",4
"Antipolo","2018-07-18",13,1002,"CHX",2
"Antipolo","2018-07-18",13,2381,"CHX",2
"Antipolo","2018-07-18",13,2413,"CHX",4
"Antipolo","2018-07-18",14,75,"CHX",4
"Antipolo","2018-07-18",14,1002,"CHX",2
"Antipolo","2018-07-18",15,2381,"CHX",2
"Antipolo","2018-07-18",16,75,"CHX",2
"Antipolo","2018-07-18",16,995,"CHX",2
"Antipolo","2018-07-18",17,75,"CHX",2
"Antipolo","2018-07-18",17,995,"CHX",4
"Antipolo","2018-07-18",17,1670,"CHX",2
"Antipolo","2018-07-18",17,2413,"CHX",4
"Antipolo","2018-07-18",18,75,"CHX",4
"Antipolo","2018-07-18",18,1002,"CHX",2
"Antipolo","2018-07-18",18,1670,"CHX",4
"Antipolo","2018-07-18",18,2381,"CHX",2
"Antipolo","2018-07-18",18,2522,"CHX",4
"Antipolo","2018-07-18",19,75,"CHX",2
"Antipolo","2018-07-18",19,88,"CHX",4
"Antipolo","2018-07-18",19,1002,"CHX",2
"Antipolo","2018-07-18",19,2381,"CHX",2
"Antipolo","2018-07-18",19,2463,"CHX",2
"Antipolo","2018-07-18",20,88,"CHX",2
"Antipolo","2018-07-18",20,2413,"CHX",2
"Antipolo","2018-07-18",21,1881,"CHX",2
"Antipolo","2018-07-18",21,2463,"CHX",4
"Antipolo","2018-07-18",22,88,"CHX",2
"Antipolo","2018-07-18",23,1881,"CHX",6
"Antipolo","2018-07-19",4,88,"CHX",1
"Antipolo","2018-07-19",5,88,"CHX",1
"Antipolo","2018-07-19",5,1881,"CHX",1
"Antipolo","2018-07-19",6,75,"CHX",2
"Antipolo","2018-07-19",6,88,"CHX",1
"Antipolo","2018-07-19",6,1670,"CHX",2
"Antipolo","2018-07-19",7,75,"CHX",1
"Antipolo","2018-07-19",7,995,"CHX",2
"Antipolo","2018-07-19",7,1670,"CHX",2
"Antipolo","2018-07-19",7,2381,"CHX",1
"Antipolo","2018-07-19",7,2413,"CHX",1
"Antipolo","2018-07-19",7,2463,"CHX",1
"Antipolo","2018-07-19",8,75,"CHX",1
"Antipolo","2018-07-19",8,88,"CHX",4
"Antipolo","2018-07-19",8,995,"CHX",2
"Antipolo","2018-07-19",8,1670,"CHX",2
"Antipolo","2018-07-19",8,1881,"CHX",1
"Antipolo","2018-07-19",8,2522,"CHX",1
"Antipolo","2018-07-19",9,75,"CHX",2
"Antipolo","2018-07-19",9,1881,"CHX",1
"Antipolo","2018-07-19",9,2413,"CHX",3
"Antipolo","2018-07-19",9,2463,"CHX",2
"Antipolo","2018-07-19",10,88,"CHX",3
"Antipolo","2018-07-19",10,1670,"CHX",2
"Antipolo","2018-07-19",11,75,"CHX",6
"Antipolo","2018-07-19",11,88,"CHX",6
"Antipolo","2018-07-19",11,995,"CHX",3
"Antipolo","2018-07-19",11,1002,"CHX",4
"Antipolo","2018-07-19",11,1881,"CHX",3
"Antipolo","2018-07-19",11,2381,"CHX",2
"Antipolo","2018-07-19",11,2413,"CHX",1
"Antipolo","2018-07-19",11,2522,"CHX",1
"Antipolo","2018-07-19",12,75,"CHX",4
"Antipolo","2018-07-19",12,88,"CHX",4
"Antipolo","2018-07-19",12,995,"CHX",2
"Antipolo","2018-07-19",12,1002,"CHX",1
"Antipolo","2018-07-19",12,1670,"CHX",5
"Antipolo","2018-07-19",12,1881,"CHX",5
"Antipolo","2018-07-19",12,2463,"CHX",2
"Antipolo","2018-07-19",13,75,"CHX",2
"Antipolo","2018-07-19",13,88,"CHX",1
"Antipolo","2018-07-19",13,995,"CHX",3
"Antipolo","2018-07-19",13,1002,"CHX",2
"Antipolo","2018-07-19",13,1670,"CHX",1
"Antipolo","2018-07-19",13,2381,"CHX",1
"Antipolo","2018-07-19",13,2413,"CHX",2
"Antipolo","2018-07-19",13,2463,"CHX",1
"Antipolo","2018-07-19",13,2522,"CHX",3
"Antipolo","2018-07-19",14,75,"CHX",1
"Antipolo","2018-07-19",14,88,"CHX",1
"Antipolo","2018-07-19",14,1881,"CHX",1
"Antipolo","2018-07-19",14,2413,"CHX",2
"Antipolo","2018-07-19",14,2463,"CHX",1
"Antipolo","2018-07-19",15,75,"CHX",2
"Antipolo","2018-07-19",15,1002,"CHX",1
"Antipolo","2018-07-19",15,1670,"CHX",2
"Antipolo","2018-07-19",15,1881,"CHX",4
"Antipolo","2018-07-19",15,2381,"CHX",4
"Antipolo","2018-07-19",15,2463,"CHX",1
"Antipolo","2018-07-19",16,75,"CHX",3
"Antipolo","2018-07-19",16,1002,"CHX",1
"Antipolo","2018-07-19",16,1881,"CHX",2
"Antipolo","2018-07-19",17,88,"CHX",6
"Antipolo","2018-07-19",17,1002,"CHX",3
"Antipolo","2018-07-19",17,1670,"CHX",7
"Antipolo","2018-07-19",17,1881,"CHX",1
"Antipolo","2018-07-19",17,2381,"CHX",1
"Antipolo","2018-07-19",17,2463,"CHX",2
"Antipolo","2018-07-19",17,2522,"CHX",2
"Antipolo","2018-07-19",18,88,"CHX",4
"Antipolo","2018-07-19",18,995,"CHX",2
"Antipolo","2018-07-19",18,1670,"CHX",7
"Antipolo","2018-07-19",18,1881,"CHX",1
"Antipolo","2018-07-19",18,2381,"CHX",1
"Antipolo","2018-07-19",18,2413,"CHX",5
"Antipolo","2018-07-19",18,2463,"CHX",5
"Antipolo","2018-07-19",18,2522,"CHX",4
"Antipolo","2018-07-19",19,88,"CHX",2
"Antipolo","2018-07-19",19,995,"CHX",5
"Antipolo","2018-07-19",19,1002,"CHX",1
"Antipolo","2018-07-19",19,1881,"CHX",6
"Antipolo","2018-07-19",19,2381,"CHX",1
"Antipolo","2018-07-19",19,2413,"CHX",2
"Antipolo","2018-07-19",19,2463,"CHX",1
"Antipolo","2018-07-19",20,75,"CHX",1
"Antipolo","2018-07-19",20,995,"CHX",1
"Antipolo","2018-07-19",20,1002,"CHX",2
"Antipolo","2018-07-19",20,1670,"CHX",1
"Antipolo","2018-07-19",20,1881,"CHX",4
"Antipolo","2018-07-19",20,2463,"CHX",1
"Antipolo","2018-07-19",21,88,"CHX",1
"Antipolo","2018-07-19",21,1670,"CHX",1
"Antipolo","2018-07-19",21,1881,"CHX",1
"Antipolo","2018-07-19",21,2413,"CHX",1
"Antipolo","2018-07-19",21,2522,"CHX",1
"Antipolo","2018-07-19",22,75,"CHX",1
"Antipolo","2018-07-19",22,1881,"CHX",3
"Antipolo","2018-07-19",22,2522,"CHX",2
"Antipolo","2018-07-19",23,1881,"CHX",1
"Antipolo","2018-07-19",5,1881,"CHX",2
"Antipolo","2018-07-19",7,995,"CHX",2
"Antipolo","2018-07-19",7,1002,"CHX",2
"Antipolo","2018-07-19",8,995,"CHX",2
"Antipolo","2018-07-19",9,1002,"CHX",4
"Antipolo","2018-07-19",10,75,"CHX",2
"Antipolo","2018-07-19",10,88,"CHX",2
"Antipolo","2018-07-19",10,995,"CHX",2
"Antipolo","2018-07-19",11,1002,"CHX",4
"Antipolo","2018-07-19",11,1670,"CHX",2
"Antipolo","2018-07-19",11,1881,"CHX",4
"Antipolo","2018-07-19",12,75,"CHX",2
"Antipolo","2018-07-19",12,995,"CHX",2
"Antipolo","2018-07-19",12,1002,"CHX",2
"Antipolo","2018-07-19",12,2463,"CHX",2
"Antipolo","2018-07-19",13,88,"CHX",2
"Antipolo","2018-07-19",13,2522,"CHX",4
"Antipolo","2018-07-19",14,1881,"CHX",4
"Antipolo","2018-07-19",15,995,"CHX",2
"Antipolo","2018-07-19",16,75,"CHX",2
"Antipolo","2018-07-19",16,2381,"CHX",4
"Antipolo","2018-07-19",17,75,"CHX",2
"Antipolo","2018-07-19",17,88,"CHX",2
"Antipolo","2018-07-19",17,995,"CHX",2
"Antipolo","2018-07-19",17,1002,"CHX",2
"Antipolo","2018-07-19",17,2463,"CHX",4
"Antipolo","2018-07-19",17,2522,"CHX",2
"Antipolo","2018-07-19",18,2381,"CHX",8
"Antipolo","2018-07-19",18,2522,"CHX",2
"Antipolo","2018-07-19",19,1002,"CHX",2
"Antipolo","2018-07-19",19,2381,"CHX",2
"Antipolo","2018-07-19",19,2413,"CHX",6
"Antipolo","2018-07-19",19,2463,"CHX",2
"Antipolo","2018-07-19",20,75,"CHX",2
"Antipolo","2018-07-19",20,88,"CHX",4
"Antipolo","2018-07-19",20,995,"CHX",2
"Antipolo","2018-07-19",20,1670,"CHX",2
"Antipolo","2018-07-19",20,2413,"CHX",2
"Antipolo","2018-07-19",21,75,"CHX",2
"Antipolo","2018-07-19",21,1881,"CHX",2
"Antipolo","2018-07-19",21,2413,"CHX",2
"Antipolo","2018-07-19",22,1670,"CHX",2
"Antipolo","2018-07-19",22,1881,"CHX",2
"Antipolo","2018-07-20",5,75,"CHX",2
"Antipolo","2018-07-20",6,1881,"CHX",1
"Antipolo","2018-07-20",6,2381,"CHX",1
"Antipolo","2018-07-20",6,2413,"CHX",1
"Antipolo","2018-07-20",7,88,"CHX",3
"Antipolo","2018-07-20",7,995,"CHX",1
"Antipolo","2018-07-20",7,2413,"CHX",3
"Antipolo","2018-07-20",7,2522,"CHX",2
"Antipolo","2018-07-20",8,88,"CHX",1
"Antipolo","2018-07-20",8,995,"CHX",2
"Antipolo","2018-07-20",8,1002,"CHX",2
"Antipolo","2018-07-20",8,1670,"CHX",2
"Antipolo","2018-07-20",8,1881,"CHX",2
"Antipolo","2018-07-20",8,2413,"CHX",2
"Antipolo","2018-07-20",9,88,"CHX",4
"Antipolo","2018-07-20",9,1881,"CHX",2
"Antipolo","2018-07-20",9,2381,"CHX",3
"Antipolo","2018-07-20",9,2413,"CHX",2
"Antipolo","2018-07-20",9,2522,"CHX",1
"Antipolo","2018-07-20",10,995,"CHX",5
"Antipolo","2018-07-20",10,1670,"CHX",3
"Antipolo","2018-07-20",10,2381,"CHX",1
"Antipolo","2018-07-20",10,2463,"CHX",1
"Antipolo","2018-07-20",10,2522,"CHX",1
"Antipolo","2018-07-20",11,75,"CHX",2
"Antipolo","2018-07-20",11,88,"CHX",12
"Antipolo","2018-07-20",11,995,"CHX",1
"Antipolo","2018-07-20",11,1002,"CHX",2
"Antipolo","2018-07-20",11,1670,"CHX",1
"Antipolo","2018-07-20",11,1881,"CHX",3
"Antipolo","2018-07-20",11,2413,"CHX",1
"Antipolo","2018-07-20",11,2522,"CHX",1
"Antipolo","2018-07-20",12,75,"CHX",1
"Antipolo","2018-07-20",12,88,"CHX",2
"Antipolo","2018-07-20",12,995,"CHX",2
"Antipolo","2018-07-20",12,1002,"CHX",1
"Antipolo","2018-07-20",12,1670,"CHX",3
"Antipolo","2018-07-20",12,1881,"CHX",2
"Antipolo","2018-07-20",12,2413,"CHX",3
"Antipolo","2018-07-20",12,2463,"CHX",2
"Antipolo","2018-07-20",12,2522,"CHX",3
"Antipolo","2018-07-20",13,75,"CHX",1
"Antipolo","2018-07-20",13,88,"CHX",4
"Antipolo","2018-07-20",13,995,"CHX",2
"Antipolo","2018-07-20",13,1670,"CHX",1
"Antipolo","2018-07-20",13,1881,"CHX",5
"Antipolo","2018-07-20",13,2413,"CHX",1
"Antipolo","2018-07-20",14,75,"CHX",2
"Antipolo","2018-07-20",14,88,"CHX",1
"Antipolo","2018-07-20",14,1002,"CHX",2
"Antipolo","2018-07-20",14,1881,"CHX",2
"Antipolo","2018-07-20",14,2381,"CHX",1
"Antipolo","2018-07-20",14,2413,"CHX",1
"Antipolo","2018-07-20",14,2522,"CHX",1
"Antipolo","2018-07-20",15,75,"CHX",1
"Antipolo","2018-07-20",15,88,"CHX",3
"Antipolo","2018-07-20",15,995,"CHX",3
"Antipolo","2018-07-20",15,1881,"CHX",2
"Antipolo","2018-07-20",15,2381,"CHX",2
"Antipolo","2018-07-20",15,2463,"CHX",2
"Antipolo","2018-07-20",16,75,"CHX",3
"Antipolo","2018-07-20",16,88,"CHX",1
"Antipolo","2018-07-20",16,1002,"CHX",5
"Antipolo","2018-07-20",16,1670,"CHX",6
"Antipolo","2018-07-20",16,2413,"CHX",2
"Antipolo","2018-07-20",16,2463,"CHX",1
"Antipolo","2018-07-20",16,2522,"CHX",2
"Antipolo","2018-07-20",17,75,"CHX",2
"Antipolo","2018-07-20",17,1002,"CHX",3
"Antipolo","2018-07-20",17,1670,"CHX",1
"Antipolo","2018-07-20",17,1881,"CHX",3
"Antipolo","2018-07-20",17,2381,"CHX",2
"Antipolo","2018-07-20",17,2413,"CHX",5
"Antipolo","2018-07-20",18,88,"CHX",7
"Antipolo","2018-07-20",18,995,"CHX",1
"Antipolo","2018-07-20",18,1002,"CHX",1
"Antipolo","2018-07-20",18,1670,"CHX",6
"Antipolo","2018-07-20",18,2413,"CHX",1
"Antipolo","2018-07-20",19,1002,"CHX",3
"Antipolo","2018-07-20",19,1881,"CHX",1
"Antipolo","2018-07-20",19,2413,"CHX",2
"Antipolo","2018-07-20",20,75,"CHX",2
"Antipolo","2018-07-20",20,88,"CHX",1
"Antipolo","2018-07-20",20,995,"CHX",1
"Antipolo","2018-07-20",20,1002,"CHX",5
"Antipolo","2018-07-20",20,1670,"CHX",4
"Antipolo","2018-07-20",20,1881,"CHX",1
"Antipolo","2018-07-20",20,2413,"CHX",5
"Antipolo","2018-07-20",21,75,"CHX",1
"Antipolo","2018-07-20",21,995,"CHX",1
"Antipolo","2018-07-20",21,2413,"CHX",2
"Antipolo","2018-07-20",21,2463,"CHX",1
"Antipolo","2018-07-20",21,2522,"CHX",2
"Antipolo","2018-07-20",22,75,"CHX",1
"Antipolo","2018-07-20",22,2381,"CHX",1
"Antipolo","2018-07-20",22,2413,"CHX",1
"Antipolo","2018-07-20",22,2463,"CHX",1
"Antipolo","2018-07-20",23,1881,"CHX",3
"Antipolo","2018-07-20",23,2381,"CHX",1
"Antipolo","2018-07-20",23,2413,"CHX",2
"Antipolo","2018-07-20",7,2522,"CHX",2
"Antipolo","2018-07-20",9,75,"CHX",2
"Antipolo","2018-07-20",9,1002,"CHX",2
"Antipolo","2018-07-20",10,88,"CHX",24
"Antipolo","2018-07-20",11,88,"CHX",4
"Antipolo","2018-07-20",11,1002,"CHX",2
"Antipolo","2018-07-20",12,75,"CHX",4
"Antipolo","2018-07-20",12,1002,"CHX",4
"Antipolo","2018-07-20",12,2381,"CHX",2
"Antipolo","2018-07-20",12,2413,"CHX",2
"Antipolo","2018-07-20",12,2463,"CHX",2
"Antipolo","2018-07-20",13,75,"CHX",2
"Antipolo","2018-07-20",13,88,"CHX",2
"Antipolo","2018-07-20",13,995,"CHX",2
"Antipolo","2018-07-20",13,1881,"CHX",2
"Antipolo","2018-07-20",13,2381,"CHX",2
"Antipolo","2018-07-20",14,995,"CHX",2
"Antipolo","2018-07-20",15,1002,"CHX",2
"Antipolo","2018-07-20",15,2413,"CHX",2
"Antipolo","2018-07-20",16,995,"CHX",2
"Antipolo","2018-07-20",16,2381,"CHX",4
"Antipolo","2018-07-20",17,88,"CHX",2
"Antipolo","2018-07-20",17,1670,"CHX",4
"Antipolo","2018-07-20",17,2381,"CHX",2
"Antipolo","2018-07-20",17,2463,"CHX",2
"Antipolo","2018-07-20",18,75,"CHX",4
"Antipolo","2018-07-20",18,88,"CHX",10
"Antipolo","2018-07-20",18,995,"CHX",2
"Antipolo","2018-07-20",18,1670,"CHX",4
"Antipolo","2018-07-20",18,1881,"CHX",4
"Antipolo","2018-07-20",18,2381,"CHX",2
"Antipolo","2018-07-20",18,2463,"CHX",2
"Antipolo","2018-07-20",19,75,"CHX",2
"Antipolo","2018-07-20",19,88,"CHX",6
"Antipolo","2018-07-20",19,995,"CHX",2
"Antipolo","2018-07-20",20,1670,"CHX",2
"Antipolo","2018-07-20",20,1881,"CHX",4
"Antipolo","2018-07-20",20,2381,"CHX",2
"Antipolo","2018-07-20",20,2413,"CHX",4
"Antipolo","2018-07-20",20,2463,"CHX",2
"Antipolo","2018-07-20",21,75,"CHX",2
"Antipolo","2018-07-20",21,995,"CHX",4
"Antipolo","2018-07-20",21,2463,"CHX",2
"Antipolo","2018-07-20",22,2463,"CHX",2
"Antipolo","2018-07-21",4,88,"CHX",1
"Antipolo","2018-07-21",5,88,"CHX",1
"Antipolo","2018-07-21",6,88,"CHX",1
"Antipolo","2018-07-21",6,995,"CHX",1
"Antipolo","2018-07-21",6,2413,"CHX",4
"Antipolo","2018-07-21",6,2463,"CHX",1
"Antipolo","2018-07-21",7,75,"CHX",2
"Antipolo","2018-07-21",7,88,"CHX",2
"Antipolo","2018-07-21",7,995,"CHX",4
"Antipolo","2018-07-21",7,1670,"CHX",2
"Antipolo","2018-07-21",7,1881,"CHX",1
"Antipolo","2018-07-21",7,2381,"CHX",1
"Antipolo","2018-07-21",7,2463,"CHX",2
"Antipolo","2018-07-21",7,2522,"CHX",2
"Antipolo","2018-07-21",8,75,"CHX",1
"Antipolo","2018-07-21",8,995,"CHX",1
"Antipolo","2018-07-21",8,1002,"CHX",1
"Antipolo","2018-07-21",8,1670,"CHX",1
"Antipolo","2018-07-21",8,2381,"CHX",1
"Antipolo","2018-07-21",8,2413,"CHX",2
"Antipolo","2018-07-21",9,75,"CHX",1
"Antipolo","2018-07-21",9,88,"CHX",1
"Antipolo","2018-07-21",9,995,"CHX",1
"Antipolo","2018-07-21",9,1670,"CHX",1
"Antipolo","2018-07-21",9,1881,"CHX",1
"Antipolo","2018-07-21",9,2381,"CHX",1
"Antipolo","2018-07-21",9,2413,"CHX",3
"Antipolo","2018-07-21",9,2463,"CHX",1
"Antipolo","2018-07-21",9,2522,"CHX",1
"Antipolo","2018-07-21",10,75,"CHX",4
"Antipolo","2018-07-21",10,88,"CHX",1
"Antipolo","2018-07-21",10,995,"CHX",1
"Antipolo","2018-07-21",10,1881,"CHX",2
"Antipolo","2018-07-21",10,2463,"CHX",1
"Antipolo","2018-07-21",10,2522,"CHX",1
"Antipolo","2018-07-21",11,75,"CHX",4
"Antipolo","2018-07-21",11,88,"CHX",6
"Antipolo","2018-07-21",11,995,"CHX",3
"Antipolo","2018-07-21",11,1002,"CHX",1
"Antipolo","2018-07-21",11,1670,"CHX",1
"Antipolo","2018-07-21",11,1881,"CHX",9
"Antipolo","2018-07-21",11,2413,"CHX",8
"Antipolo","2018-07-21",11,2463,"CHX",2
"Antipolo","2018-07-21",12,75,"CHX",1
"Antipolo","2018-07-21",12,88,"CHX",8
"Antipolo","2018-07-21",12,995,"CHX",3
"Antipolo","2018-07-21",12,1002,"CHX",2
"Antipolo","2018-07-21",12,1881,"CHX",18
"Antipolo","2018-07-21",12,2413,"CHX",1
"Antipolo","2018-07-21",12,2463,"CHX",2
"Antipolo","2018-07-21",12,2522,"CHX",2
"Antipolo","2018-07-21",13,75,"CHX",3
"Antipolo","2018-07-21",13,88,"CHX",4
"Antipolo","2018-07-21",13,995,"CHX",1
"Antipolo","2018-07-21",13,1002,"CHX",2
"Antipolo","2018-07-21",13,1670,"CHX",2
"Antipolo","2018-07-21",13,2413,"CHX",2
"Antipolo","2018-07-21",13,2463,"CHX",1
"Antipolo","2018-07-21",13,2522,"CHX",1
"Antipolo","2018-07-21",14,75,"CHX",2
"Antipolo","2018-07-21",14,1002,"CHX",4
"Antipolo","2018-07-21",14,1670,"CHX",1
"Antipolo","2018-07-21",14,1881,"CHX",2
"Antipolo","2018-07-21",14,2413,"CHX",1
"Antipolo","2018-07-21",14,2463,"CHX",2
"Antipolo","2018-07-21",14,2522,"CHX",1
"Antipolo","2018-07-21",15,75,"CHX",1
"Antipolo","2018-07-21",15,88,"CHX",3
"Antipolo","2018-07-21",15,1670,"CHX",2
"Antipolo","2018-07-21",15,2381,"CHX",1
"Antipolo","2018-07-21",15,2522,"CHX",1
"Antipolo","2018-07-21",16,995,"CHX",1
"Antipolo","2018-07-21",16,1002,"CHX",4
"Antipolo","2018-07-21",16,1670,"CHX",4
"Antipolo","2018-07-21",16,1881,"CHX",4
"Antipolo","2018-07-21",16,2463,"CHX",3
"Antipolo","2018-07-21",16,2522,"CHX",1
"Antipolo","2018-07-21",17,995,"CHX",6
"Antipolo","2018-07-21",17,1002,"CHX",1
"Antipolo","2018-07-21",17,1670,"CHX",2
"Antipolo","2018-07-21",17,1881,"CHX",2
"Antipolo","2018-07-21",17,2413,"CHX",2
"Antipolo","2018-07-21",18,75,"CHX",2
"Antipolo","2018-07-21",18,88,"CHX",2
"Antipolo","2018-07-21",18,995,"CHX",1
"Antipolo","2018-07-21",18,1670,"CHX",5
"Antipolo","2018-07-21",18,2381,"CHX",5
"Antipolo","2018-07-21",18,2463,"CHX",5
"Antipolo","2018-07-21",18,2522,"CHX",1
"Antipolo","2018-07-21",19,75,"CHX",2
"Antipolo","2018-07-21",19,88,"CHX",6
"Antipolo","2018-07-21",19,1670,"CHX",1
"Antipolo","2018-07-21",19,1881,"CHX",1
"Antipolo","2018-07-21",19,2381,"CHX",5
"Antipolo","2018-07-21",19,2413,"CHX",6
"Antipolo","2018-07-21",19,2463,"CHX",4
"Antipolo","2018-07-21",20,75,"CHX",3
"Antipolo","2018-07-21",20,88,"CHX",2
"Antipolo","2018-07-21",20,1002,"CHX",1
"Antipolo","2018-07-21",20,1881,"CHX",4
"Antipolo","2018-07-21",20,2381,"CHX",3
"Antipolo","2018-07-21",20,2413,"CHX",5
"Antipolo","2018-07-21",20,2522,"CHX",3
"Antipolo","2018-07-21",21,995,"CHX",1
"Antipolo","2018-07-21",21,1881,"CHX",6
"Antipolo","2018-07-21",22,995,"CHX",1
"Antipolo","2018-07-21",22,1881,"CHX",2
"Antipolo","2018-07-21",23,2522,"CHX",1
"Antipolo","2018-07-21",5,75,"CHX",2
"Antipolo","2018-07-21",6,88,"CHX",2
"Antipolo","2018-07-21",8,995,"CHX",2
"Antipolo","2018-07-21",8,1670,"CHX",2
"Antipolo","2018-07-21",9,88,"CHX",4
"Antipolo","2018-07-21",9,1002,"CHX",2
"Antipolo","2018-07-21",9,2381,"CHX",2
"Antipolo","2018-07-21",10,995,"CHX",2
"Antipolo","2018-07-21",10,2463,"CHX",4
"Antipolo","2018-07-21",11,75,"CHX",2
"Antipolo","2018-07-21",11,995,"CHX",2
"Antipolo","2018-07-21",11,1002,"CHX",2
"Antipolo","2018-07-21",11,1670,"CHX",2
"Antipolo","2018-07-21",11,2381,"CHX",2
"Antipolo","2018-07-21",12,75,"CHX",2
"Antipolo","2018-07-21",12,88,"CHX",2
"Antipolo","2018-07-21",12,1002,"CHX",2
"Antipolo","2018-07-21",12,2381,"CHX",4
"Antipolo","2018-07-21",13,88,"CHX",2
"Antipolo","2018-07-21",13,995,"CHX",2
"Antipolo","2018-07-21",13,2522,"CHX",4
"Antipolo","2018-07-21",14,1002,"CHX",2
"Antipolo","2018-07-21",15,75,"CHX",2
"Antipolo","2018-07-21",15,88,"CHX",6
"Antipolo","2018-07-21",15,1881,"CHX",2
"Antipolo","2018-07-21",15,2413,"CHX",2
"Antipolo","2018-07-21",16,2381,"CHX",2
"Antipolo","2018-07-21",17,995,"CHX",2
"Antipolo","2018-07-21",17,2413,"CHX",2
"Antipolo","2018-07-21",18,75,"CHX",2
"Antipolo","2018-07-21",18,88,"CHX",2
"Antipolo","2018-07-21",18,1670,"CHX",4
"Antipolo","2018-07-21",18,2381,"CHX",2
"Antipolo","2018-07-21",18,2463,"CHX",4
"Antipolo","2018-07-21",19,75,"CHX",6
"Antipolo","2018-07-21",19,88,"CHX",2
"Antipolo","2018-07-21",19,995,"CHX",2
"Antipolo","2018-07-21",19,1002,"CHX",4
"Antipolo","2018-07-21",19,2413,"CHX",2
"Antipolo","2018-07-21",20,88,"CHX",6
"Antipolo","2018-07-21",20,2522,"CHX",2
"Antipolo","2018-07-21",22,995,"CHX",2
"Antipolo","2018-07-21",22,1002,"CHX",2
"Antipolo","2018-07-22",0,1881,"CHX",2
"Antipolo","2018-07-22",4,88,"CHX",1
"Antipolo","2018-07-22",5,75,"CHX",2
"Antipolo","2018-07-22",5,1670,"CHX",1
"Antipolo","2018-07-22",6,995,"CHX",1
"Antipolo","2018-07-22",6,2381,"CHX",1
"Antipolo","2018-07-22",7,75,"CHX",2
"Antipolo","2018-07-22",7,88,"CHX",2
"Antipolo","2018-07-22",7,1670,"CHX",3
"Antipolo","2018-07-22",7,2381,"CHX",1
"Antipolo","2018-07-22",8,75,"CHX",2
"Antipolo","2018-07-22",8,995,"CHX",2
"Antipolo","2018-07-22",8,1670,"CHX",2
"Antipolo","2018-07-22",8,1881,"CHX",1
"Antipolo","2018-07-22",8,2413,"CHX",4
"Antipolo","2018-07-22",9,88,"CHX",1
"Antipolo","2018-07-22",9,1002,"CHX",2
"Antipolo","2018-07-22",9,1881,"CHX",3
"Antipolo","2018-07-22",9,2413,"CHX",1
"Antipolo","2018-07-22",10,88,"CHX",1
"Antipolo","2018-07-22",10,995,"CHX",2
"Antipolo","2018-07-22",10,1670,"CHX",3
"Antipolo","2018-07-22",10,2413,"CHX",3
"Antipolo","2018-07-22",10,2522,"CHX",2
"Antipolo","2018-07-22",11,75,"CHX",2
"Antipolo","2018-07-22",11,88,"CHX",7
"Antipolo","2018-07-22",11,995,"CHX",1
"Antipolo","2018-07-22",11,1670,"CHX",1
"Antipolo","2018-07-22",11,1881,"CHX",3
"Antipolo","2018-07-22",11,2381,"CHX",5
"Antipolo","2018-07-22",11,2413,"CHX",2
"Antipolo","2018-07-22",12,75,"CHX",1
"Antipolo","2018-07-22",12,88,"CHX",7
"Antipolo","2018-07-22",12,995,"CHX",3
"Antipolo","2018-07-22",12,1002,"CHX",1
"Antipolo","2018-07-22",12,2381,"CHX",1
"Antipolo","2018-07-22",13,75,"CHX",6
"Antipolo","2018-07-22",13,88,"CHX",5
"Antipolo","2018-07-22",13,1002,"CHX",2
"Antipolo","2018-07-22",13,1670,"CHX",3
"Antipolo","2018-07-22",13,2381,"CHX",1
"Antipolo","2018-07-22",13,2413,"CHX",3
"Antipolo","2018-07-22",13,2522,"CHX",1
"Antipolo","2018-07-22",14,75,"CHX",2
"Antipolo","2018-07-22",14,88,"CHX",1
"Antipolo","2018-07-22",14,995,"CHX",2
"Antipolo","2018-07-22",14,1002,"CHX",2
"Antipolo","2018-07-22",14,1670,"CHX",6
"Antipolo","2018-07-22",14,1881,"CHX",2
"Antipolo","2018-07-22",14,2381,"CHX",1
"Antipolo","2018-07-22",14,2522,"CHX",2
"Antipolo","2018-07-22",15,75,"CHX",1
"Antipolo","2018-07-22",15,88,"CHX",2
"Antipolo","2018-07-22",15,995,"CHX",1
"Antipolo","2018-07-22",15,1670,"CHX",1
"Antipolo","2018-07-22",15,2463,"CHX",1
"Antipolo","2018-07-22",16,75,"CHX",1
"Antipolo","2018-07-22",16,88,"CHX",1
"Antipolo","2018-07-22",16,1670,"CHX",1
"Antipolo","2018-07-22",16,2381,"CHX",3
"Antipolo","2018-07-22",16,2413,"CHX",3
"Antipolo","2018-07-22",16,2463,"CHX",2
"Antipolo","2018-07-22",17,995,"CHX",1
"Antipolo","2018-07-22",17,1670,"CHX",1
"Antipolo","2018-07-22",17,2413,"CHX",1
"Antipolo","2018-07-22",17,2463,"CHX",1
"Antipolo","2018-07-22",18,75,"CHX",3
"Antipolo","2018-07-22",18,88,"CHX",2
"Antipolo","2018-07-22",18,995,"CHX",2
"Antipolo","2018-07-22",18,1002,"CHX",3
"Antipolo","2018-07-22",18,2381,"CHX",1
"Antipolo","2018-07-22",18,2413,"CHX",3
"Antipolo","2018-07-22",18,2463,"CHX",1
"Antipolo","2018-07-22",19,75,"CHX",8
"Antipolo","2018-07-22",19,88,"CHX",5
"Antipolo","2018-07-22",19,995,"CHX",3
"Antipolo","2018-07-22",19,1002,"CHX",1
"Antipolo","2018-07-22",19,1881,"CHX",2
"Antipolo","2018-07-22",19,2413,"CHX",1
"Antipolo","2018-07-22",19,2463,"CHX",2
"Antipolo","2018-07-22",20,75,"CHX",1
"Antipolo","2018-07-22",20,88,"CHX",2
"Antipolo","2018-07-22",20,1670,"CHX",4
"Antipolo","2018-07-22",20,1881,"CHX",1
"Antipolo","2018-07-22",20,2381,"CHX",3
"Antipolo","2018-07-22",20,2413,"CHX",1
"Antipolo","2018-07-22",21,75,"CHX",1
"Antipolo","2018-07-22",21,995,"CHX",1
"Antipolo","2018-07-22",21,1670,"CHX",5
"Antipolo","2018-07-22",21,1881,"CHX",3
"Antipolo","2018-07-22",21,2381,"CHX",1
"Antipolo","2018-07-22",22,88,"CHX",6
"Antipolo","2018-07-22",22,1881,"CHX",1
"Antipolo","2018-07-22",22,2381,"CHX",1
"Antipolo","2018-07-22",23,2381,"CHX",1
"Antipolo","2018-07-22",5,88,"CHX",2
"Antipolo","2018-07-22",6,1881,"CHX",2
"Antipolo","2018-07-22",8,88,"CHX",4
"Antipolo","2018-07-22",9,2463,"CHX",2
"Antipolo","2018-07-22",10,88,"CHX",2
"Antipolo","2018-07-22",10,1002,"CHX",2
"Antipolo","2018-07-22",10,1881,"CHX",2
"Antipolo","2018-07-22",11,88,"CHX",2
"Antipolo","2018-07-22",11,995,"CHX",2
"Antipolo","2018-07-22",11,1881,"CHX",2
"Antipolo","2018-07-22",11,2381,"CHX",2
"Antipolo","2018-07-22",12,75,"CHX",2
"Antipolo","2018-07-22",12,88,"CHX",2
"Antipolo","2018-07-22",12,1002,"CHX",4
"Antipolo","2018-07-22",12,2522,"CHX",2
"Antipolo","2018-07-22",13,88,"CHX",2
"Antipolo","2018-07-22",13,1881,"CHX",2
"Antipolo","2018-07-22",13,2463,"CHX",2
"Antipolo","2018-07-22",14,88,"CHX",2
"Antipolo","2018-07-22",14,1002,"CHX",6
"Antipolo","2018-07-22",14,2381,"CHX",2
"Antipolo","2018-07-22",15,75,"CHX",2
"Antipolo","2018-07-22",15,2413,"CHX",2
"Antipolo","2018-07-22",16,1002,"CHX",2
"Antipolo","2018-07-22",16,1881,"CHX",2
"Antipolo","2018-07-22",16,2381,"CHX",2
"Antipolo","2018-07-22",16,2463,"CHX",2
"Antipolo","2018-07-22",17,1670,"CHX",2
"Antipolo","2018-07-22",17,2381,"CHX",2
"Antipolo","2018-07-22",17,2463,"CHX",2
"Antipolo","2018-07-22",18,75,"CHX",6
"Antipolo","2018-07-22",18,88,"CHX",4
"Antipolo","2018-07-22",18,1002,"CHX",6
"Antipolo","2018-07-22",18,1881,"CHX",4
"Antipolo","2018-07-22",18,2381,"CHX",4
"Antipolo","2018-07-22",18,2413,"CHX",2
"Antipolo","2018-07-22",18,2463,"CHX",2
"Antipolo","2018-07-22",19,2463,"CHX",2
"Antipolo","2018-07-22",19,2522,"CHX",2
"Antipolo","2018-07-22",20,75,"CHX",2
"Antipolo","2018-07-22",20,1670,"CHX",2
"Antipolo","2018-07-22",20,1881,"CHX",6
"Antipolo","2018-07-22",21,1670,"CHX",2
"Antipolo","2018-07-22",22,995,"CHX",2
"Antipolo","2018-07-22",22,1881,"CHX",4
"Antipolo","2018-07-22",23,995,"CHX",2
"Antipolo","2018-07-16",0,88,"NUG",2
"Antipolo","2018-07-16",0,2381,"NUG",1
"Antipolo","2018-07-16",5,88,"NUG",1
"Antipolo","2018-07-16",5,2463,"NUG",1
"Antipolo","2018-07-16",7,75,"NUG",1
"Antipolo","2018-07-16",8,995,"NUG",1
"Antipolo","2018-07-16",8,2381,"NUG",1
"Antipolo","2018-07-16",9,75,"NUG",1
"Antipolo","2018-07-16",9,88,"NUG",1
"Antipolo","2018-07-16",9,995,"NUG",1
"Antipolo","2018-07-16",9,1670,"NUG",2
"Antipolo","2018-07-16",10,995,"NUG",1
"Antipolo","2018-07-16",10,1002,"NUG",1
"Antipolo","2018-07-16",10,1881,"NUG",1
"Antipolo","2018-07-16",10,2381,"NUG",1
"Antipolo","2018-07-16",10,2463,"NUG",2
"Antipolo","2018-07-16",11,88,"NUG",1
"Antipolo","2018-07-16",11,995,"NUG",2
"Antipolo","2018-07-16",11,1881,"NUG",2
"Antipolo","2018-07-16",11,2413,"NUG",1
"Antipolo","2018-07-16",12,75,"NUG",1
"Antipolo","2018-07-16",12,88,"NUG",1
"Antipolo","2018-07-16",12,995,"NUG",1
"Antipolo","2018-07-16",12,1670,"NUG",4
"Antipolo","2018-07-16",13,1002,"NUG",1
"Antipolo","2018-07-16",13,1881,"NUG",2
"Antipolo","2018-07-16",13,2463,"NUG",1
"Antipolo","2018-07-16",14,88,"NUG",1
"Antipolo","2018-07-16",14,995,"NUG",1
"Antipolo","2018-07-16",14,1002,"NUG",1
"Antipolo","2018-07-16",14,1881,"NUG",1
"Antipolo","2018-07-16",14,2463,"NUG",3
"Antipolo","2018-07-16",15,995,"NUG",1
"Antipolo","2018-07-16",15,2381,"NUG",1
"Antipolo","2018-07-16",15,2413,"NUG",1
"Antipolo","2018-07-16",16,75,"NUG",1
"Antipolo","2018-07-16",16,2413,"NUG",1
"Antipolo","2018-07-16",17,75,"NUG",1
"Antipolo","2018-07-16",17,995,"NUG",1
"Antipolo","2018-07-16",17,1670,"NUG",1
"Antipolo","2018-07-16",18,1670,"NUG",2
"Antipolo","2018-07-16",19,75,"NUG",4
"Antipolo","2018-07-16",19,88,"NUG",1
"Antipolo","2018-07-16",19,1881,"NUG",4
"Antipolo","2018-07-16",19,2413,"NUG",1
"Antipolo","2018-07-16",19,2463,"NUG",1
"Antipolo","2018-07-16",20,75,"NUG",2
"Antipolo","2018-07-16",20,88,"NUG",3
"Antipolo","2018-07-16",20,995,"NUG",2
"Antipolo","2018-07-16",20,2413,"NUG",1
"Antipolo","2018-07-16",21,1002,"NUG",1
"Antipolo","2018-07-16",21,2463,"NUG",1
"Antipolo","2018-07-16",0,2381,"NUG",2
"Antipolo","2018-07-16",6,1002,"NUG",2
"Antipolo","2018-07-16",6,1881,"NUG",1
"Antipolo","2018-07-16",7,75,"NUG",1
"Antipolo","2018-07-16",7,88,"NUG",1
"Antipolo","2018-07-16",7,995,"NUG",1
"Antipolo","2018-07-16",7,1002,"NUG",1
"Antipolo","2018-07-16",8,88,"NUG",1
"Antipolo","2018-07-16",8,995,"NUG",1
"Antipolo","2018-07-16",8,1881,"NUG",1
"Antipolo","2018-07-16",9,88,"NUG",1
"Antipolo","2018-07-16",10,1002,"NUG",3
"Antipolo","2018-07-16",10,1881,"NUG",1
"Antipolo","2018-07-16",11,1881,"NUG",1
"Antipolo","2018-07-16",11,2413,"NUG",3
"Antipolo","2018-07-16",11,2463,"NUG",2
"Antipolo","2018-07-16",11,2522,"NUG",1
"Antipolo","2018-07-16",12,75,"NUG",1
"Antipolo","2018-07-16",12,88,"NUG",3
"Antipolo","2018-07-16",12,995,"NUG",1
"Antipolo","2018-07-16",12,1002,"NUG",1
"Antipolo","2018-07-16",12,1881,"NUG",3
"Antipolo","2018-07-16",12,2522,"NUG",2
"Antipolo","2018-07-16",13,1002,"NUG",2
"Antipolo","2018-07-16",13,1881,"NUG",1
"Antipolo","2018-07-16",14,75,"NUG",1
"Antipolo","2018-07-16",14,88,"NUG",1
"Antipolo","2018-07-16",14,995,"NUG",1
"Antipolo","2018-07-16",14,1002,"NUG",1
"Antipolo","2018-07-16",14,1670,"NUG",1
"Antipolo","2018-07-16",14,1881,"NUG",1
"Antipolo","2018-07-16",14,2463,"NUG",1
"Antipolo","2018-07-16",15,75,"NUG",1
"Antipolo","2018-07-16",15,1881,"NUG",1
"Antipolo","2018-07-16",15,2381,"NUG",2
"Antipolo","2018-07-16",16,75,"NUG",1
"Antipolo","2018-07-16",16,1670,"NUG",1
"Antipolo","2018-07-16",16,1881,"NUG",1
"Antipolo","2018-07-16",16,2381,"NUG",1
"Antipolo","2018-07-16",17,1670,"NUG",1
"Antipolo","2018-07-16",17,1881,"NUG",1
"Antipolo","2018-07-16",17,2522,"NUG",1
"Antipolo","2018-07-16",18,1670,"NUG",1
"Antipolo","2018-07-16",18,2413,"NUG",2
"Antipolo","2018-07-16",18,2463,"NUG",1
"Antipolo","2018-07-16",18,2522,"NUG",1
"Antipolo","2018-07-16",19,88,"NUG",3
"Antipolo","2018-07-16",19,1002,"NUG",1
"Antipolo","2018-07-16",19,1670,"NUG",5
"Antipolo","2018-07-16",19,1881,"NUG",1
"Antipolo","2018-07-16",19,2381,"NUG",1
"Antipolo","2018-07-16",19,2463,"NUG",1
"Antipolo","2018-07-16",19,2522,"NUG",1
"Antipolo","2018-07-16",20,1881,"NUG",1
"Antipolo","2018-07-16",22,995,"NUG",3
"Antipolo","2018-07-16",22,2463,"NUG",1
"Antipolo","2018-07-17",7,1670,"NUG",2
"Antipolo","2018-07-17",8,88,"NUG",1
"Antipolo","2018-07-17",8,995,"NUG",1
"Antipolo","2018-07-17",8,1002,"NUG",1
"Antipolo","2018-07-17",8,1670,"NUG",1
"Antipolo","2018-07-17",8,2413,"NUG",1
"Antipolo","2018-07-17",9,995,"NUG",1
"Antipolo","2018-07-17",9,2413,"NUG",2
"Antipolo","2018-07-17",10,1670,"NUG",1
"Antipolo","2018-07-17",10,1881,"NUG",1
"Antipolo","2018-07-17",10,2413,"NUG",2
"Antipolo","2018-07-17",11,995,"NUG",1
"Antipolo","2018-07-17",11,1002,"NUG",1
"Antipolo","2018-07-17",11,2381,"NUG",1
"Antipolo","2018-07-17",12,75,"NUG",1
"Antipolo","2018-07-17",12,88,"NUG",1
"Antipolo","2018-07-17",12,995,"NUG",2
"Antipolo","2018-07-17",12,1670,"NUG",3
"Antipolo","2018-07-17",12,1881,"NUG",1
"Antipolo","2018-07-17",12,2413,"NUG",1
"Antipolo","2018-07-17",13,995,"NUG",1
"Antipolo","2018-07-17",13,1002,"NUG",2
"Antipolo","2018-07-17",13,2413,"NUG",3
"Antipolo","2018-07-17",14,2463,"NUG",2
"Antipolo","2018-07-17",15,1881,"NUG",1
"Antipolo","2018-07-17",15,2413,"NUG",1
"Antipolo","2018-07-17",16,2463,"NUG",1
"Antipolo","2018-07-17",17,75,"NUG",1
"Antipolo","2018-07-17",19,88,"NUG",2
"Antipolo","2018-07-17",20,1670,"NUG",1
"Antipolo","2018-07-17",20,2381,"NUG",3
"Antipolo","2018-07-17",21,88,"NUG",1
"Antipolo","2018-07-17",22,88,"NUG",1
"Antipolo","2018-07-17",5,88,"NUG",2
"Antipolo","2018-07-17",5,2381,"NUG",1
"Antipolo","2018-07-17",6,75,"NUG",2
"Antipolo","2018-07-17",6,1002,"NUG",1
"Antipolo","2018-07-17",7,75,"NUG",1
"Antipolo","2018-07-17",7,995,"NUG",2
"Antipolo","2018-07-17",8,75,"NUG",1
"Antipolo","2018-07-17",8,1881,"NUG",1
"Antipolo","2018-07-17",8,2413,"NUG",1
"Antipolo","2018-07-17",9,88,"NUG",1
"Antipolo","2018-07-17",9,1670,"NUG",2
"Antipolo","2018-07-17",9,1881,"NUG",1
"Antipolo","2018-07-17",10,1670,"NUG",1
"Antipolo","2018-07-17",11,1002,"NUG",1
"Antipolo","2018-07-17",11,2381,"NUG",1
"Antipolo","2018-07-17",12,88,"NUG",4
"Antipolo","2018-07-17",12,995,"NUG",1
"Antipolo","2018-07-17",12,2463,"NUG",1
"Antipolo","2018-07-17",13,75,"NUG",2
"Antipolo","2018-07-17",13,88,"NUG",1
"Antipolo","2018-07-17",13,1881,"NUG",1
"Antipolo","2018-07-17",13,2413,"NUG",1
"Antipolo","2018-07-17",13,2463,"NUG",1
"Antipolo","2018-07-17",13,2522,"NUG",1
"Antipolo","2018-07-17",14,88,"NUG",1
"Antipolo","2018-07-17",14,1881,"NUG",1
"Antipolo","2018-07-17",14,2381,"NUG",2
"Antipolo","2018-07-17",15,1002,"NUG",2
"Antipolo","2018-07-17",15,1881,"NUG",1
"Antipolo","2018-07-17",15,2381,"NUG",1
"Antipolo","2018-07-17",15,2413,"NUG",1
"Antipolo","2018-07-17",16,1002,"NUG",1
"Antipolo","2018-07-17",16,2463,"NUG",1
"Antipolo","2018-07-17",17,1670,"NUG",1
"Antipolo","2018-07-17",17,2413,"NUG",1
"Antipolo","2018-07-17",18,75,"NUG",4
"Antipolo","2018-07-17",18,995,"NUG",4
"Antipolo","2018-07-17",18,1002,"NUG",1
"Antipolo","2018-07-17",18,1881,"NUG",3
"Antipolo","2018-07-17",19,75,"NUG",3
"Antipolo","2018-07-17",19,88,"NUG",1
"Antipolo","2018-07-17",19,995,"NUG",1
"Antipolo","2018-07-17",19,1002,"NUG",1
"Antipolo","2018-07-17",19,1670,"NUG",1
"Antipolo","2018-07-17",19,2381,"NUG",2
"Antipolo","2018-07-17",20,1670,"NUG",2
"Antipolo","2018-07-17",20,2381,"NUG",3
"Antipolo","2018-07-17",20,2413,"NUG",2
"Antipolo","2018-07-17",20,2463,"NUG",2
"Antipolo","2018-07-17",20,2522,"NUG",2
"Antipolo","2018-07-17",21,1670,"NUG",1
"Antipolo","2018-07-17",21,2413,"NUG",2
"Antipolo","2018-07-17",22,995,"NUG",1
"Antipolo","2018-07-17",22,2413,"NUG",2
"Antipolo","2018-07-17",23,88,"NUG",2
"Antipolo","2018-07-17",23,995,"NUG",1
"Antipolo","2018-07-18",0,88,"NUG",1
"Antipolo","2018-07-18",1,88,"NUG",1
"Antipolo","2018-07-18",6,2413,"NUG",1
"Antipolo","2018-07-18",7,88,"NUG",1
"Antipolo","2018-07-18",7,995,"NUG",1
"Antipolo","2018-07-18",8,88,"NUG",2
"Antipolo","2018-07-18",10,75,"NUG",1
"Antipolo","2018-07-18",10,88,"NUG",1
"Antipolo","2018-07-18",10,2413,"NUG",2
"Antipolo","2018-07-18",11,75,"NUG",1
"Antipolo","2018-07-18",11,995,"NUG",3
"Antipolo","2018-07-18",11,2413,"NUG",1
"Antipolo","2018-07-18",12,75,"NUG",1
"Antipolo","2018-07-18",12,88,"NUG",1
"Antipolo","2018-07-18",12,1002,"NUG",1
"Antipolo","2018-07-18",13,75,"NUG",1
"Antipolo","2018-07-18",13,1002,"NUG",3
"Antipolo","2018-07-18",13,2413,"NUG",1
"Antipolo","2018-07-18",15,1002,"NUG",1
"Antipolo","2018-07-18",15,2413,"NUG",2
"Antipolo","2018-07-18",17,1670,"NUG",1
"Antipolo","2018-07-18",17,1881,"NUG",1
"Antipolo","2018-07-18",18,2522,"NUG",1
"Antipolo","2018-07-18",19,88,"NUG",2
"Antipolo","2018-07-18",19,2413,"NUG",1
"Antipolo","2018-07-18",20,995,"NUG",1
"Antipolo","2018-07-18",21,88,"NUG",2
"Antipolo","2018-07-18",21,2463,"NUG",2
"Antipolo","2018-07-18",22,2381,"NUG",1
"Antipolo","2018-07-18",23,88,"NUG",1
"Antipolo","2018-07-18",23,1881,"NUG",1
"Antipolo","2018-07-18",23,2413,"NUG",1
"Antipolo","2018-07-18",0,88,"NUG",1
"Antipolo","2018-07-18",5,75,"NUG",1
"Antipolo","2018-07-18",6,88,"NUG",1
"Antipolo","2018-07-18",6,1670,"NUG",1
"Antipolo","2018-07-18",6,1881,"NUG",1
"Antipolo","2018-07-18",7,1002,"NUG",1
"Antipolo","2018-07-18",7,2413,"NUG",1
"Antipolo","2018-07-18",7,2463,"NUG",1
"Antipolo","2018-07-18",8,88,"NUG",2
"Antipolo","2018-07-18",8,1881,"NUG",2
"Antipolo","2018-07-18",9,1670,"NUG",1
"Antipolo","2018-07-18",10,75,"NUG",3
"Antipolo","2018-07-18",10,1881,"NUG",1
"Antipolo","2018-07-18",11,75,"NUG",2
"Antipolo","2018-07-18",11,88,"NUG",1
"Antipolo","2018-07-18",11,995,"NUG",2
"Antipolo","2018-07-18",11,1670,"NUG",2
"Antipolo","2018-07-18",12,88,"NUG",2
"Antipolo","2018-07-18",12,1881,"NUG",4
"Antipolo","2018-07-18",12,2463,"NUG",1
"Antipolo","2018-07-18",13,2522,"NUG",1
"Antipolo","2018-07-18",15,75,"NUG",2
"Antipolo","2018-07-18",15,88,"NUG",1
"Antipolo","2018-07-18",15,1002,"NUG",1
"Antipolo","2018-07-18",15,1670,"NUG",3
"Antipolo","2018-07-18",15,1881,"NUG",1
"Antipolo","2018-07-18",16,75,"NUG",2
"Antipolo","2018-07-18",16,88,"NUG",3
"Antipolo","2018-07-18",17,88,"NUG",1
"Antipolo","2018-07-18",17,1002,"NUG",1
"Antipolo","2018-07-18",18,75,"NUG",1
"Antipolo","2018-07-18",18,995,"NUG",2
"Antipolo","2018-07-18",18,2413,"NUG",2
"Antipolo","2018-07-18",19,88,"NUG",1
"Antipolo","2018-07-18",19,1670,"NUG",2
"Antipolo","2018-07-18",19,1881,"NUG",1
"Antipolo","2018-07-18",19,2413,"NUG",1
"Antipolo","2018-07-18",19,2463,"NUG",2
"Antipolo","2018-07-18",20,75,"NUG",1
"Antipolo","2018-07-18",20,1002,"NUG",1
"Antipolo","2018-07-18",20,2413,"NUG",1
"Antipolo","2018-07-18",21,88,"NUG",1
"Antipolo","2018-07-18",22,2381,"NUG",2
"Antipolo","2018-07-18",23,995,"NUG",4
"Antipolo","2018-07-18",23,2413,"NUG",1
"Antipolo","2018-07-19",5,75,"NUG",1
"Antipolo","2018-07-19",5,1881,"NUG",1
"Antipolo","2018-07-19",5,2381,"NUG",2
"Antipolo","2018-07-19",6,75,"NUG",1
"Antipolo","2018-07-19",6,995,"NUG",1
"Antipolo","2018-07-19",6,1670,"NUG",3
"Antipolo","2018-07-19",6,2413,"NUG",1
"Antipolo","2018-07-19",7,88,"NUG",1
"Antipolo","2018-07-19",7,2413,"NUG",1
"Antipolo","2018-07-19",8,75,"NUG",1
"Antipolo","2018-07-19",8,88,"NUG",1
"Antipolo","2018-07-19",9,995,"NUG",2
"Antipolo","2018-07-19",9,1670,"NUG",1
"Antipolo","2018-07-19",9,2413,"NUG",1
"Antipolo","2018-07-19",10,75,"NUG",1
"Antipolo","2018-07-19",10,88,"NUG",1
"Antipolo","2018-07-19",10,1670,"NUG",1
"Antipolo","2018-07-19",10,2522,"NUG",1
"Antipolo","2018-07-19",11,75,"NUG",1
"Antipolo","2018-07-19",11,995,"NUG",2
"Antipolo","2018-07-19",11,1670,"NUG",1
"Antipolo","2018-07-19",11,1881,"NUG",1
"Antipolo","2018-07-19",12,88,"NUG",2
"Antipolo","2018-07-19",12,995,"NUG",1
"Antipolo","2018-07-19",12,1881,"NUG",1
"Antipolo","2018-07-19",13,88,"NUG",1
"Antipolo","2018-07-19",13,995,"NUG",1
"Antipolo","2018-07-19",13,2413,"NUG",1
"Antipolo","2018-07-19",14,1002,"NUG",1
"Antipolo","2018-07-19",15,1670,"NUG",1
"Antipolo","2018-07-19",15,2463,"NUG",1
"Antipolo","2018-07-19",17,88,"NUG",1
"Antipolo","2018-07-19",17,2381,"NUG",1
"Antipolo","2018-07-19",17,2463,"NUG",2
"Antipolo","2018-07-19",17,2522,"NUG",1
"Antipolo","2018-07-19",18,2381,"NUG",1
"Antipolo","2018-07-19",18,2413,"NUG",1
"Antipolo","2018-07-19",18,2463,"NUG",2
"Antipolo","2018-07-19",19,995,"NUG",1
"Antipolo","2018-07-19",19,1881,"NUG",1
"Antipolo","2018-07-19",20,995,"NUG",1
"Antipolo","2018-07-19",0,75,"NUG",2
"Antipolo","2018-07-19",0,2413,"NUG",1
"Antipolo","2018-07-19",6,75,"NUG",1
"Antipolo","2018-07-19",6,88,"NUG",1
"Antipolo","2018-07-19",6,2463,"NUG",1
"Antipolo","2018-07-19",7,995,"NUG",1
"Antipolo","2018-07-19",7,1002,"NUG",1
"Antipolo","2018-07-19",8,2413,"NUG",1
"Antipolo","2018-07-19",9,75,"NUG",2
"Antipolo","2018-07-19",9,88,"NUG",2
"Antipolo","2018-07-19",9,2413,"NUG",2
"Antipolo","2018-07-19",10,2463,"NUG",3
"Antipolo","2018-07-19",11,1881,"NUG",1
"Antipolo","2018-07-19",11,2381,"NUG",2
"Antipolo","2018-07-19",11,2463,"NUG",1
"Antipolo","2018-07-19",12,88,"NUG",2
"Antipolo","2018-07-19",12,995,"NUG",1
"Antipolo","2018-07-19",12,1002,"NUG",1
"Antipolo","2018-07-19",12,1670,"NUG",2
"Antipolo","2018-07-19",12,2463,"NUG",1
"Antipolo","2018-07-19",12,2522,"NUG",1
"Antipolo","2018-07-19",13,75,"NUG",1
"Antipolo","2018-07-19",13,2413,"NUG",1
"Antipolo","2018-07-19",14,75,"NUG",1
"Antipolo","2018-07-19",14,1002,"NUG",3
"Antipolo","2018-07-19",14,2413,"NUG",1
"Antipolo","2018-07-19",14,2522,"NUG",1
"Antipolo","2018-07-19",15,995,"NUG",2
"Antipolo","2018-07-19",15,1670,"NUG",1
"Antipolo","2018-07-19",15,2463,"NUG",1
"Antipolo","2018-07-19",16,1881,"NUG",2
"Antipolo","2018-07-19",17,88,"NUG",1
"Antipolo","2018-07-19",17,1002,"NUG",2
"Antipolo","2018-07-19",17,1670,"NUG",2
"Antipolo","2018-07-19",17,2463,"NUG",1
"Antipolo","2018-07-19",18,88,"NUG",2
"Antipolo","2018-07-19",18,1881,"NUG",1
"Antipolo","2018-07-19",18,2381,"NUG",1
"Antipolo","2018-07-19",18,2413,"NUG",1
"Antipolo","2018-07-19",18,2463,"NUG",2
"Antipolo","2018-07-19",19,75,"NUG",1
"Antipolo","2018-07-19",19,88,"NUG",2
"Antipolo","2018-07-19",19,995,"NUG",2
"Antipolo","2018-07-19",19,1002,"NUG",2
"Antipolo","2018-07-19",19,1670,"NUG",1
"Antipolo","2018-07-19",19,1881,"NUG",1
"Antipolo","2018-07-19",19,2463,"NUG",1
"Antipolo","2018-07-19",20,1002,"NUG",2
"Antipolo","2018-07-19",20,1670,"NUG",3
"Antipolo","2018-07-19",20,1881,"NUG",1
"Antipolo","2018-07-19",20,2381,"NUG",1
"Antipolo","2018-07-19",20,2413,"NUG",2
"Antipolo","2018-07-19",21,1881,"NUG",1
"Antipolo","2018-07-19",21,2381,"NUG",1
"Antipolo","2018-07-19",21,2413,"NUG",1
"Antipolo","2018-07-19",22,75,"NUG",2
"Antipolo","2018-07-19",22,2463,"NUG",1
"Antipolo","2018-07-19",23,2463,"NUG",6
"Antipolo","2018-07-20",12,1881,"NUG",1
"Antipolo","2018-07-20",7,2522,"NUG",1
"Antipolo","2018-07-20",8,2413,"NUG",1
"Antipolo","2018-07-20",9,995,"NUG",3
"Antipolo","2018-07-20",10,1670,"NUG",1
"Antipolo","2018-07-20",12,75,"NUG",2
"Antipolo","2018-07-20",12,1881,"NUG",3
"Antipolo","2018-07-20",12,2522,"NUG",1
"Antipolo","2018-07-20",13,75,"NUG",1
"Antipolo","2018-07-20",14,75,"NUG",2
"Antipolo","2018-07-20",14,2463,"NUG",2
"Antipolo","2018-07-20",15,88,"NUG",1
"Antipolo","2018-07-20",15,1881,"NUG",2
"Antipolo","2018-07-20",15,2463,"NUG",2
"Antipolo","2018-07-20",16,88,"NUG",1
"Antipolo","2018-07-20",16,995,"NUG",1
"Antipolo","2018-07-20",16,1670,"NUG",1
"Antipolo","2018-07-20",17,995,"NUG",2
"Antipolo","2018-07-20",17,1881,"NUG",3
"Antipolo","2018-07-20",18,88,"NUG",1
"Antipolo","2018-07-20",18,2413,"NUG",1
"Antipolo","2018-07-20",19,88,"NUG",2
"Antipolo","2018-07-20",19,1670,"NUG",2
"Antipolo","2018-07-20",19,2413,"NUG",3
"Antipolo","2018-07-20",20,2413,"NUG",1
"Antipolo","2018-07-20",22,2381,"NUG",1
"Antipolo","2018-07-20",23,2381,"NUG",1
"Antipolo","2018-07-20",23,2463,"NUG",1
"Antipolo","2018-07-20",5,88,"NUG",1
"Antipolo","2018-07-20",7,2413,"NUG",1
"Antipolo","2018-07-20",8,1002,"NUG",1
"Antipolo","2018-07-20",8,1670,"NUG",1
"Antipolo","2018-07-20",8,2413,"NUG",2
"Antipolo","2018-07-20",9,75,"NUG",1
"Antipolo","2018-07-20",9,88,"NUG",1
"Antipolo","2018-07-20",9,1881,"NUG",1
"Antipolo","2018-07-20",10,88,"NUG",1
"Antipolo","2018-07-20",10,2413,"NUG",2
"Antipolo","2018-07-20",11,75,"NUG",1
"Antipolo","2018-07-20",11,1002,"NUG",2
"Antipolo","2018-07-20",12,75,"NUG",2
"Antipolo","2018-07-20",12,88,"NUG",1
"Antipolo","2018-07-20",12,2413,"NUG",1
"Antipolo","2018-07-20",12,2522,"NUG",1
"Antipolo","2018-07-20",13,88,"NUG",1
"Antipolo","2018-07-20",13,1002,"NUG",4
"Antipolo","2018-07-20",13,1881,"NUG",1
"Antipolo","2018-07-20",13,2381,"NUG",1
"Antipolo","2018-07-20",13,2413,"NUG",5
"Antipolo","2018-07-20",14,995,"NUG",2
"Antipolo","2018-07-20",14,2381,"NUG",2
"Antipolo","2018-07-20",14,2463,"NUG",1
"Antipolo","2018-07-20",15,88,"NUG",1
"Antipolo","2018-07-20",15,1002,"NUG",1
"Antipolo","2018-07-20",15,2381,"NUG",1
"Antipolo","2018-07-20",15,2413,"NUG",1
"Antipolo","2018-07-20",15,2463,"NUG",1
"Antipolo","2018-07-20",16,1002,"NUG",1
"Antipolo","2018-07-20",16,1881,"NUG",1
"Antipolo","2018-07-20",17,88,"NUG",3
"Antipolo","2018-07-20",17,1002,"NUG",1
"Antipolo","2018-07-20",17,1670,"NUG",1
"Antipolo","2018-07-20",17,2413,"NUG",4
"Antipolo","2018-07-20",18,995,"NUG",1
"Antipolo","2018-07-20",18,2413,"NUG",1
"Antipolo","2018-07-20",19,1002,"NUG",5
"Antipolo","2018-07-20",19,1670,"NUG",3
"Antipolo","2018-07-20",19,2463,"NUG",2
"Antipolo","2018-07-20",20,88,"NUG",1
"Antipolo","2018-07-20",20,1002,"NUG",5
"Antipolo","2018-07-20",20,1670,"NUG",2
"Antipolo","2018-07-20",20,1881,"NUG",1
"Antipolo","2018-07-20",20,2381,"NUG",4
"Antipolo","2018-07-20",20,2413,"NUG",1
"Antipolo","2018-07-20",20,2522,"NUG",2
"Antipolo","2018-07-20",21,75,"NUG",1
"Antipolo","2018-07-20",21,88,"NUG",1
"Antipolo","2018-07-20",21,2463,"NUG",1
"Antipolo","2018-07-20",22,75,"NUG",1
"Antipolo","2018-07-20",22,995,"NUG",1
"Antipolo","2018-07-20",22,2413,"NUG",1
"Antipolo","2018-07-20",23,2413,"NUG",1
"Antipolo","2018-07-21",5,75,"NUG",1
"Antipolo","2018-07-21",5,88,"NUG",1
"Antipolo","2018-07-21",6,2413,"NUG",1
"Antipolo","2018-07-21",7,75,"NUG",2
"Antipolo","2018-07-21",7,995,"NUG",1
"Antipolo","2018-07-21",7,2381,"NUG",1
"Antipolo","2018-07-21",8,75,"NUG",1
"Antipolo","2018-07-21",8,995,"NUG",1
"Antipolo","2018-07-21",8,1670,"NUG",1
"Antipolo","2018-07-21",10,75,"NUG",1
"Antipolo","2018-07-21",10,88,"NUG",4
"Antipolo","2018-07-21",10,2381,"NUG",1
"Antipolo","2018-07-21",10,2463,"NUG",1
"Antipolo","2018-07-21",11,75,"NUG",1
"Antipolo","2018-07-21",11,88,"NUG",1
"Antipolo","2018-07-21",11,2413,"NUG",1
"Antipolo","2018-07-21",12,75,"NUG",1
"Antipolo","2018-07-21",12,995,"NUG",1
"Antipolo","2018-07-21",12,1002,"NUG",2
"Antipolo","2018-07-21",12,1881,"NUG",1
"Antipolo","2018-07-21",13,75,"NUG",1
"Antipolo","2018-07-21",13,1002,"NUG",1
"Antipolo","2018-07-21",13,1670,"NUG",2
"Antipolo","2018-07-21",14,75,"NUG",1
"Antipolo","2018-07-21",14,88,"NUG",1
"Antipolo","2018-07-21",14,1670,"NUG",1
"Antipolo","2018-07-21",15,1670,"NUG",1
"Antipolo","2018-07-21",16,75,"NUG",1
"Antipolo","2018-07-21",16,1670,"NUG",1
"Antipolo","2018-07-21",17,75,"NUG",1
"Antipolo","2018-07-21",18,75,"NUG",1
"Antipolo","2018-07-21",19,2381,"NUG",1
"Antipolo","2018-07-21",19,2413,"NUG",3
"Antipolo","2018-07-21",19,2463,"NUG",1
"Antipolo","2018-07-21",20,75,"NUG",1
"Antipolo","2018-07-21",20,2463,"NUG",1
"Antipolo","2018-07-21",21,88,"NUG",1
"Antipolo","2018-07-21",22,88,"NUG",2
"Antipolo","2018-07-21",22,1002,"NUG",1
"Antipolo","2018-07-21",7,2463,"NUG",2
"Antipolo","2018-07-21",8,88,"NUG",2
"Antipolo","2018-07-21",8,1881,"NUG",1
"Antipolo","2018-07-21",9,88,"NUG",1
"Antipolo","2018-07-21",9,2413,"NUG",2
"Antipolo","2018-07-21",10,2381,"NUG",1
"Antipolo","2018-07-21",11,995,"NUG",1
"Antipolo","2018-07-21",11,2381,"NUG",1
"Antipolo","2018-07-21",11,2413,"NUG",1
"Antipolo","2018-07-21",12,995,"NUG",1
"Antipolo","2018-07-21",12,1002,"NUG",1
"Antipolo","2018-07-21",12,1670,"NUG",4
"Antipolo","2018-07-21",12,1881,"NUG",1
"Antipolo","2018-07-21",12,2463,"NUG",1
"Antipolo","2018-07-21",12,2522,"NUG",2
"Antipolo","2018-07-21",13,995,"NUG",1
"Antipolo","2018-07-21",13,1881,"NUG",1
"Antipolo","2018-07-21",13,2381,"NUG",1
"Antipolo","2018-07-21",13,2463,"NUG",2
"Antipolo","2018-07-21",14,995,"NUG",2
"Antipolo","2018-07-21",14,1002,"NUG",1
"Antipolo","2018-07-21",14,1881,"NUG",3
"Antipolo","2018-07-21",15,88,"NUG",1
"Antipolo","2018-07-21",15,1670,"NUG",1
"Antipolo","2018-07-21",15,2463,"NUG",1
"Antipolo","2018-07-21",15,2522,"NUG",1
"Antipolo","2018-07-21",16,75,"NUG",1
"Antipolo","2018-07-21",16,995,"NUG",1
"Antipolo","2018-07-21",16,1002,"NUG",1
"Antipolo","2018-07-21",16,1881,"NUG",2
"Antipolo","2018-07-21",16,2413,"NUG",2
"Antipolo","2018-07-21",16,2522,"NUG",1
"Antipolo","2018-07-21",17,75,"NUG",1
"Antipolo","2018-07-21",17,1670,"NUG",3
"Antipolo","2018-07-21",17,1881,"NUG",1
"Antipolo","2018-07-21",17,2381,"NUG",3
"Antipolo","2018-07-21",18,75,"NUG",1
"Antipolo","2018-07-21",18,88,"NUG",2
"Antipolo","2018-07-21",18,995,"NUG",1
"Antipolo","2018-07-21",18,1670,"NUG",1
"Antipolo","2018-07-21",18,1881,"NUG",2
"Antipolo","2018-07-21",18,2413,"NUG",2
"Antipolo","2018-07-21",18,2522,"NUG",1
"Antipolo","2018-07-21",19,1002,"NUG",1
"Antipolo","2018-07-21",19,1670,"NUG",2
"Antipolo","2018-07-21",19,1881,"NUG",1
"Antipolo","2018-07-21",19,2413,"NUG",3
"Antipolo","2018-07-21",19,2522,"NUG",1
"Antipolo","2018-07-21",20,1002,"NUG",1
"Antipolo","2018-07-21",20,1881,"NUG",1
"Antipolo","2018-07-21",20,2463,"NUG",3
"Antipolo","2018-07-21",21,88,"NUG",2
"Antipolo","2018-07-21",21,2413,"NUG",1
"Antipolo","2018-07-21",22,88,"NUG",1
"Antipolo","2018-07-21",22,1002,"NUG",1
"Antipolo","2018-07-22",9,1670,"NUG",1
"Antipolo","2018-07-22",10,88,"NUG",2
"Antipolo","2018-07-22",11,75,"NUG",2
"Antipolo","2018-07-22",11,1002,"NUG",1
"Antipolo","2018-07-22",11,1881,"NUG",1
"Antipolo","2018-07-22",11,2381,"NUG",2
"Antipolo","2018-07-22",11,2413,"NUG",2
"Antipolo","2018-07-22",12,1881,"NUG",1
"Antipolo","2018-07-22",13,1881,"NUG",1
"Antipolo","2018-07-22",14,1002,"NUG",1
"Antipolo","2018-07-22",14,1670,"NUG",1
"Antipolo","2018-07-22",15,88,"NUG",1
"Antipolo","2018-07-22",16,995,"NUG",1
"Antipolo","2018-07-22",16,1002,"NUG",1
"Antipolo","2018-07-22",16,2413,"NUG",1
"Antipolo","2018-07-22",17,1670,"NUG",1
"Antipolo","2018-07-22",17,2413,"NUG",3
"Antipolo","2018-07-22",18,75,"NUG",1
"Antipolo","2018-07-22",18,88,"NUG",2
"Antipolo","2018-07-22",18,995,"NUG",1
"Antipolo","2018-07-22",19,75,"NUG",1
"Antipolo","2018-07-22",19,88,"NUG",1
"Antipolo","2018-07-22",19,1002,"NUG",3
"Antipolo","2018-07-22",20,75,"NUG",1
"Antipolo","2018-07-22",20,88,"NUG",2
"Antipolo","2018-07-22",20,1881,"NUG",1
"Antipolo","2018-07-22",20,2463,"NUG",1
"Antipolo","2018-07-22",21,88,"NUG",1
"Antipolo","2018-07-22",21,1670,"NUG",1
"Antipolo","2018-07-22",22,88,"NUG",1
"Antipolo","2018-07-22",22,2381,"NUG",1
"Antipolo","2018-07-22",8,1670,"NUG",2
"Antipolo","2018-07-22",9,995,"NUG",1
"Antipolo","2018-07-22",9,1002,"NUG",1
"Antipolo","2018-07-22",9,1670,"NUG",1
"Antipolo","2018-07-22",9,2463,"NUG",2
"Antipolo","2018-07-22",10,1002,"NUG",1
"Antipolo","2018-07-22",10,2413,"NUG",1
"Antipolo","2018-07-22",10,2463,"NUG",1
"Antipolo","2018-07-22",11,2381,"NUG",1
"Antipolo","2018-07-22",12,1002,"NUG",1
"Antipolo","2018-07-22",12,1670,"NUG",1
"Antipolo","2018-07-22",12,2381,"NUG",1
"Antipolo","2018-07-22",12,2413,"NUG",2
"Antipolo","2018-07-22",13,1881,"NUG",2
"Antipolo","2018-07-22",13,2381,"NUG",1
"Antipolo","2018-07-22",14,995,"NUG",2
"Antipolo","2018-07-22",14,1002,"NUG",2
"Antipolo","2018-07-22",14,1670,"NUG",1
"Antipolo","2018-07-22",14,2381,"NUG",1
"Antipolo","2018-07-22",14,2413,"NUG",2
"Antipolo","2018-07-22",15,1670,"NUG",3
"Antipolo","2018-07-22",15,1881,"NUG",1
"Antipolo","2018-07-22",15,2463,"NUG",1
"Antipolo","2018-07-22",16,2463,"NUG",1
"Antipolo","2018-07-22",17,995,"NUG",1
"Antipolo","2018-07-22",17,1670,"NUG",2
"Antipolo","2018-07-22",17,1881,"NUG",1
"Antipolo","2018-07-22",17,2413,"NUG",3
"Antipolo","2018-07-22",18,75,"NUG",1
"Antipolo","2018-07-22",18,88,"NUG",4
"Antipolo","2018-07-22",18,1670,"NUG",2
"Antipolo","2018-07-22",18,1881,"NUG",1
"Antipolo","2018-07-22",18,2381,"NUG",2
"Antipolo","2018-07-22",18,2413,"NUG",2
"Antipolo","2018-07-22",18,2463,"NUG",2
"Antipolo","2018-07-22",19,75,"NUG",1
"Antipolo","2018-07-22",19,88,"NUG",1
"Antipolo","2018-07-22",19,2381,"NUG",3
"Antipolo","2018-07-22",19,2463,"NUG",1
"Antipolo","2018-07-22",20,75,"NUG",3
"Antipolo","2018-07-22",21,88,"NUG",1
"Antipolo","2018-07-22",21,1002,"NUG",1
"Antipolo","2018-07-22",21,1670,"NUG",2
"Antipolo","2018-07-22",22,2381,"NUG",1
"Antipolo","2018-07-22",22,2463,"NUG",3
